<svg width="33" height="33" viewBox="0 0 33 33" fill="none" xmlns="http://www.w3.org/2000/svg">
<path d="M16.4688 0C7.37329 0 0 7.37329 0 16.4688C0 25.5642 7.37329 32.9375 16.4688 32.9375C25.5642 32.9375 32.9375 25.5642 32.9375 16.4688C32.9375 7.37329 25.5642 0 16.4688 0ZM16.4688 3.1875C23.8088 3.1875 29.75 9.12761 29.75 16.4688C29.75 23.8088 23.8099 29.75 16.4688 29.75C9.12873 29.75 3.1875 23.8099 3.1875 16.4688C3.1875 9.12873 9.12761 3.1875 16.4688 3.1875ZM25.7792 11.838L24.2826 10.3294C23.9727 10.017 23.4682 10.0149 23.1557 10.3249L13.7691 19.6361L9.79851 15.6334C9.48859 15.3209 8.98404 15.3189 8.67159 15.6288L7.16291 17.1253C6.85047 17.4352 6.84841 17.9398 7.15839 18.2523L13.1868 24.3295C13.4967 24.642 14.0013 24.644 14.3137 24.334L25.7747 12.965C26.0871 12.655 26.0891 12.1505 25.7792 11.838Z" fill="#0F9036"/>
</svg>
