<svg width="40" height="40" viewBox="0 0 40 40" fill="none" xmlns="http://www.w3.org/2000/svg">
<g filter="url(#filter0_d)">
<circle cx="20" cy="20" r="12" fill="white"/>
<g clip-path="url(#clip0)">
<path d="M24.9478 15.0523C24.2714 14.3759 23.4125 14 22.475 14C21.3804 14 20.1785 14.5121 19.0348 15.6561L17.025 17.6661C15.2658 19.4251 15.3289 22.2716 15.7039 23.5009L14.165 25.0398C13.9453 25.2594 13.9453 25.6156 14.165 25.8352C14.3846 26.0548 14.7408 26.0548 14.9604 25.8352L16.4979 24.2977C16.9067 24.422 17.4924 24.5122 18.1592 24.5122C19.4996 24.5122 21.1601 24.1494 22.3341 22.9754L24.3441 20.9656C26.4678 18.8417 26.4141 16.5184 24.9478 15.0523V15.0523ZM17.4542 23.3415L18.5457 22.25H21.4547C20.4089 23.2304 18.95 23.3858 18.1592 23.3858C17.8917 23.386 17.6602 23.3668 17.4542 23.3415ZM22.2169 21.5H19.2957L20.7957 20H23.6975C23.6452 20.0562 23.6035 20.1132 23.5477 20.169L22.2169 21.5ZM24.2867 19.25H21.5457L22.0732 18.7224C22.2928 18.5028 22.2928 18.1466 22.0732 17.927C21.8536 17.7073 21.4974 17.7073 21.2778 17.927L16.6606 22.5441C16.5371 21.4667 16.6538 19.6299 17.8212 18.4625C17.8212 18.4625 18.2597 18.024 19.831 16.4525C20.6986 15.5848 21.6129 15.1264 22.4747 15.1264C23.0989 15.1264 23.6787 15.3762 24.1512 15.8487C25.0692 16.7666 25.0892 18.0109 24.2867 19.25Z" fill="#0F9036"/>
</g>
</g>
<defs>
<filter id="filter0_d" x="0" y="0" width="40" height="40" filterUnits="userSpaceOnUse" color-interpolation-filters="sRGB">
<feFlood flood-opacity="0" result="BackgroundImageFix"/>
<feColorMatrix in="SourceAlpha" type="matrix" values="0 0 0 0 0 0 0 0 0 0 0 0 0 0 0 0 0 0 127 0"/>
<feOffset/>
<feGaussianBlur stdDeviation="4"/>
<feColorMatrix type="matrix" values="0 0 0 0 0 0 0 0 0 0 0 0 0 0 0 0 0 0 0.25 0"/>
<feBlend mode="normal" in2="BackgroundImageFix" result="effect1_dropShadow"/>
<feBlend mode="normal" in="SourceGraphic" in2="effect1_dropShadow" result="shape"/>
</filter>
<clipPath id="clip0">
<rect width="12" height="12" fill="white" transform="translate(14 14)"/>
</clipPath>
</defs>
</svg>
