<svg width="15" height="10" viewBox="0 0 15 10" fill="none" xmlns="http://www.w3.org/2000/svg">
<path d="M6.91707 9.4914L0.241469 2.34129C-0.0804897 1.99645 -0.0804897 1.43737 0.241469 1.09256L1.02007 0.258623C1.34148 -0.0856303 1.86239 -0.0862928 2.18456 0.257151L7.50002 5.92374L12.8154 0.257151C13.1376 -0.0862928 13.6585 -0.0856303 13.9799 0.258623L14.7585 1.09256C15.0805 1.43741 15.0805 1.99648 14.7585 2.34129L8.08296 9.4914C7.76101 9.8362 7.23903 9.8362 6.91707 9.4914Z" fill="#3F93AF"/>
</svg>
