<svg width="173" height="10" viewBox="0 0 173 10" fill="none" xmlns="http://www.w3.org/2000/svg">
<path d="M0.752999 9.19092H6.285V8.24292H3.849C3.405 8.24292 2.865 8.29092 2.409 8.32692C4.473 6.37092 5.853 4.58292 5.853 2.83092C5.853 1.25892 4.869 0.226918 3.297 0.226918C2.181 0.226918 1.425 0.742917 0.704999 1.52292L1.341 2.14692C1.821 1.57092 2.445 1.12692 3.165 1.12692C4.257 1.12692 4.785 1.85892 4.785 2.86692C4.785 4.37892 3.513 6.13092 0.752999 8.54292V9.19092ZM8.00925 9.19092H13.5412V8.24292H11.1052C10.6612 8.24292 10.1212 8.29092 9.66525 8.32692C11.7292 6.37092 13.1092 4.58292 13.1092 2.83092C13.1092 1.25892 12.1252 0.226918 10.5532 0.226918C9.43725 0.226918 8.68125 0.742917 7.96125 1.52292L8.59725 2.14692C9.07725 1.57092 9.70125 1.12692 10.4212 1.12692C11.5132 1.12692 12.0412 1.85892 12.0412 2.86692C12.0412 4.37892 10.7692 6.13092 8.00925 8.54292V9.19092ZM16.1175 5.89092L18.1215 2.89092C18.3735 2.45892 18.6135 2.02692 18.8295 1.59492H18.8775C18.8535 2.05092 18.8055 2.75892 18.8055 3.19092V5.89092H16.1175ZM21.0135 5.89092H19.8495V0.394917H18.6375L14.9775 6.04692V6.76692H18.8055V9.19092H19.8495V6.76692H21.0135V5.89092ZM25.3417 9.34692C26.9977 9.34692 28.1017 8.35092 28.1017 7.06692C28.1017 5.86692 27.3817 5.20692 26.6137 4.76292V4.70292C27.1417 4.29492 27.7897 3.50292 27.7897 2.57892C27.7897 1.22292 26.8777 0.262918 25.3777 0.262918C23.9977 0.262918 22.9657 1.15092 22.9657 2.49492C22.9657 3.41892 23.5057 4.07892 24.1537 4.52292V4.58292C23.3497 5.01492 22.5337 5.83092 22.5337 7.00692C22.5337 8.36292 23.7217 9.34692 25.3417 9.34692ZM25.9417 4.41492C24.9097 4.00692 23.9617 3.55092 23.9617 2.49492C23.9617 1.64292 24.5497 1.06692 25.3537 1.06692C26.3017 1.06692 26.8537 1.77492 26.8537 2.63892C26.8537 3.28692 26.5417 3.88692 25.9417 4.41492ZM25.3657 8.53092C24.3097 8.53092 23.5297 7.84692 23.5297 6.91092C23.5297 6.07092 24.0217 5.37492 24.7297 4.91892C25.9777 5.42292 27.0577 5.86692 27.0577 7.04292C27.0577 7.91892 26.3737 8.53092 25.3657 8.53092ZM32.418 9.34692C33.978 9.34692 35.238 8.41092 35.238 6.83892C35.238 5.63892 34.41 4.84692 33.366 4.60692V4.55892C34.302 4.21092 34.938 3.50292 34.938 2.43492C34.938 1.01892 33.858 0.226918 32.382 0.226918C31.362 0.226918 30.582 0.670918 29.922 1.28292L30.51 1.97892C31.002 1.48692 31.626 1.12692 32.334 1.10292C33.246 1.12692 33.822 1.66692 33.822 2.51892C33.822 3.46692 33.198 4.19892 31.386 4.19892V5.03892C33.414 5.03892 34.122 5.74692 34.122 6.80292C34.122 7.81092 33.378 8.43492 32.334 8.43492C31.338 8.43492 30.666 7.96692 30.15 7.42692L29.598 8.14692C30.174 8.77092 31.038 9.34692 32.418 9.34692ZM39.6382 9.34692C41.1262 9.34692 42.5182 8.25492 42.5182 6.32292C42.5182 4.39092 41.3302 3.52692 39.8662 3.52692C39.3382 3.52692 38.9422 3.65892 38.5582 3.87492L38.7742 1.33092H42.0982V0.394917H37.8142L37.5382 4.51092L38.1262 4.87092C38.6302 4.53492 39.0022 4.35492 39.5902 4.35492C40.6942 4.35492 41.4142 5.09892 41.4142 6.35892C41.4142 7.64292 40.5742 8.43492 39.5422 8.43492C38.5222 8.43492 37.8862 7.96692 37.3822 7.46292L36.8422 8.18292C37.4302 8.77092 38.2702 9.34692 39.6382 9.34692ZM47.1105 9.34692C48.7665 9.34692 49.8705 8.35092 49.8705 7.06692C49.8705 5.86692 49.1505 5.20692 48.3825 4.76292V4.70292C48.9105 4.29492 49.5585 3.50292 49.5585 2.57892C49.5585 1.22292 48.6465 0.262918 47.1465 0.262918C45.7665 0.262918 44.7345 1.15092 44.7345 2.49492C44.7345 3.41892 45.2745 4.07892 45.9225 4.52292V4.58292C45.1185 5.01492 44.3025 5.83092 44.3025 7.00692C44.3025 8.36292 45.4905 9.34692 47.1105 9.34692ZM47.7105 4.41492C46.6785 4.00692 45.7305 3.55092 45.7305 2.49492C45.7305 1.64292 46.3185 1.06692 47.1225 1.06692C48.0705 1.06692 48.6225 1.77492 48.6225 2.63892C48.6225 3.28692 48.3105 3.88692 47.7105 4.41492ZM47.1345 8.53092C46.0785 8.53092 45.2985 7.84692 45.2985 6.91092C45.2985 6.07092 45.7905 5.37492 46.4985 4.91892C47.7465 5.42292 48.8265 5.86692 48.8265 7.04292C48.8265 7.91892 48.1425 8.53092 47.1345 8.53092ZM54.1507 9.34692C55.6387 9.34692 57.0307 8.25492 57.0307 6.32292C57.0307 4.39092 55.8427 3.52692 54.3787 3.52692C53.8507 3.52692 53.4547 3.65892 53.0707 3.87492L53.2867 1.33092H56.6107V0.394917H52.3267L52.0507 4.51092L52.6387 4.87092C53.1427 4.53492 53.5147 4.35492 54.1027 4.35492C55.2067 4.35492 55.9267 5.09892 55.9267 6.35892C55.9267 7.64292 55.0867 8.43492 54.0547 8.43492C53.0347 8.43492 52.3987 7.96692 51.8947 7.46292L51.3547 8.18292C51.9427 8.77092 52.7827 9.34692 54.1507 9.34692ZM61.623 9.34692C63.279 9.34692 64.383 8.35092 64.383 7.06692C64.383 5.86692 63.663 5.20692 62.895 4.76292V4.70292C63.423 4.29492 64.071 3.50292 64.071 2.57892C64.071 1.22292 63.159 0.262918 61.659 0.262918C60.279 0.262918 59.247 1.15092 59.247 2.49492C59.247 3.41892 59.787 4.07892 60.435 4.52292V4.58292C59.631 5.01492 58.815 5.83092 58.815 7.00692C58.815 8.36292 60.003 9.34692 61.623 9.34692ZM62.223 4.41492C61.191 4.00692 60.243 3.55092 60.243 2.49492C60.243 1.64292 60.831 1.06692 61.635 1.06692C62.583 1.06692 63.135 1.77492 63.135 2.63892C63.135 3.28692 62.823 3.88692 62.223 4.41492ZM61.647 8.53092C60.591 8.53092 59.811 7.84692 59.811 6.91092C59.811 6.07092 60.303 5.37492 61.011 4.91892C62.259 5.42292 63.339 5.86692 63.339 7.04292C63.339 7.91892 62.655 8.53092 61.647 8.53092ZM68.6633 9.34692C70.1513 9.34692 71.5433 8.25492 71.5433 6.32292C71.5433 4.39092 70.3553 3.52692 68.8913 3.52692C68.3633 3.52692 67.9673 3.65892 67.5833 3.87492L67.7993 1.33092H71.1233V0.394917H66.8393L66.5633 4.51092L67.1513 4.87092C67.6553 4.53492 68.0273 4.35492 68.6152 4.35492C69.7193 4.35492 70.4393 5.09892 70.4393 6.35892C70.4393 7.64292 69.5993 8.43492 68.5673 8.43492C67.5473 8.43492 66.9113 7.96692 66.4073 7.46292L65.8673 8.18292C66.4553 8.77092 67.2952 9.34692 68.6633 9.34692ZM76.1355 9.34692C77.7915 9.34692 78.8955 8.35092 78.8955 7.06692C78.8955 5.86692 78.1755 5.20692 77.4075 4.76292V4.70292C77.9355 4.29492 78.5835 3.50292 78.5835 2.57892C78.5835 1.22292 77.6715 0.262918 76.1715 0.262918C74.7915 0.262918 73.7595 1.15092 73.7595 2.49492C73.7595 3.41892 74.2995 4.07892 74.9475 4.52292V4.58292C74.1435 5.01492 73.3275 5.83092 73.3275 7.00692C73.3275 8.36292 74.5155 9.34692 76.1355 9.34692ZM76.7355 4.41492C75.7035 4.00692 74.7555 3.55092 74.7555 2.49492C74.7555 1.64292 75.3435 1.06692 76.1475 1.06692C77.0955 1.06692 77.6475 1.77492 77.6475 2.63892C77.6475 3.28692 77.3355 3.88692 76.7355 4.41492ZM76.1595 8.53092C75.1035 8.53092 74.3235 7.84692 74.3235 6.91092C74.3235 6.07092 74.8155 5.37492 75.5235 4.91892C76.7715 5.42292 77.8515 5.86692 77.8515 7.04292C77.8515 7.91892 77.1675 8.53092 76.1595 8.53092ZM83.3797 9.34692C85.0477 9.34692 86.1157 7.82292 86.1157 4.76292C86.1157 1.71492 85.0477 0.226918 83.3797 0.226918C81.6997 0.226918 80.6317 1.70292 80.6317 4.76292C80.6317 7.82292 81.6997 9.34692 83.3797 9.34692ZM83.3797 8.47092C82.3717 8.47092 81.6997 7.35492 81.6997 4.76292C81.6997 2.19492 82.3717 1.11492 83.3797 1.11492C84.3757 1.11492 85.0477 2.19492 85.0477 4.76292C85.0477 7.35492 84.3757 8.47092 83.3797 8.47092ZM90.636 9.34692C92.304 9.34692 93.372 7.82292 93.372 4.76292C93.372 1.71492 92.304 0.226918 90.636 0.226918C88.956 0.226918 87.888 1.70292 87.888 4.76292C87.888 7.82292 88.956 9.34692 90.636 9.34692ZM90.636 8.47092C89.628 8.47092 88.956 7.35492 88.956 4.76292C88.956 2.19492 89.628 1.11492 90.636 1.11492C91.632 1.11492 92.304 2.19492 92.304 4.76292C92.304 7.35492 91.632 8.47092 90.636 8.47092ZM97.8923 9.34692C99.5603 9.34692 100.628 7.82292 100.628 4.76292C100.628 1.71492 99.5603 0.226918 97.8923 0.226918C96.2123 0.226918 95.1443 1.70292 95.1443 4.76292C95.1443 7.82292 96.2123 9.34692 97.8923 9.34692ZM97.8923 8.47092C96.8843 8.47092 96.2123 7.35492 96.2123 4.76292C96.2123 2.19492 96.8843 1.11492 97.8923 1.11492C98.8883 1.11492 99.5603 2.19492 99.5603 4.76292C99.5603 7.35492 98.8883 8.47092 97.8923 8.47092ZM105.149 9.34692C106.817 9.34692 107.885 7.82292 107.885 4.76292C107.885 1.71492 106.817 0.226918 105.149 0.226918C103.469 0.226918 102.401 1.70292 102.401 4.76292C102.401 7.82292 103.469 9.34692 105.149 9.34692ZM105.149 8.47092C104.141 8.47092 103.469 7.35492 103.469 4.76292C103.469 2.19492 104.141 1.11492 105.149 1.11492C106.145 1.11492 106.817 2.19492 106.817 4.76292C106.817 7.35492 106.145 8.47092 105.149 8.47092ZM109.597 9.19092H115.129V8.24292H112.693C112.249 8.24292 111.709 8.29092 111.253 8.32692C113.317 6.37092 114.697 4.58292 114.697 2.83092C114.697 1.25892 113.713 0.226918 112.141 0.226918C111.025 0.226918 110.269 0.742917 109.549 1.52292L110.185 2.14692C110.665 1.57092 111.289 1.12692 112.009 1.12692C113.101 1.12692 113.629 1.85892 113.629 2.86692C113.629 4.37892 112.357 6.13092 109.597 8.54292V9.19092ZM117.705 5.89092L119.709 2.89092C119.961 2.45892 120.201 2.02692 120.417 1.59492H120.465C120.441 2.05092 120.393 2.75892 120.393 3.19092V5.89092H117.705ZM122.601 5.89092H121.437V0.394917H120.225L116.565 6.04692V6.76692H120.393V9.19092H121.437V6.76692H122.601V5.89092ZM124.637 9.19092H129.461V8.27892H127.697V0.394917H126.857C126.377 0.670918 125.813 0.874918 125.033 1.01892V1.71492H126.593V8.27892H124.637V9.19092ZM131.893 9.19092H136.717V8.27892H134.953V0.394917H134.113C133.633 0.670918 133.069 0.874918 132.289 1.01892V1.71492H133.849V8.27892H131.893V9.19092ZM139.15 9.19092H143.974V8.27892H142.21V0.394917H141.37C140.89 0.670918 140.326 0.874918 139.546 1.01892V1.71492H141.106V8.27892H139.15V9.19092ZM145.878 9.19092H151.41V8.24292H148.974C148.53 8.24292 147.99 8.29092 147.534 8.32692C149.598 6.37092 150.978 4.58292 150.978 2.83092C150.978 1.25892 149.994 0.226918 148.422 0.226918C147.306 0.226918 146.55 0.742917 145.83 1.52292L146.466 2.14692C146.946 1.57092 147.57 1.12692 148.29 1.12692C149.382 1.12692 149.91 1.85892 149.91 2.86692C149.91 4.37892 148.638 6.13092 145.878 8.54292V9.19092ZM155.774 9.34692C157.334 9.34692 158.594 8.41092 158.594 6.83892C158.594 5.63892 157.766 4.84692 156.722 4.60692V4.55892C157.658 4.21092 158.294 3.50292 158.294 2.43492C158.294 1.01892 157.214 0.226918 155.738 0.226918C154.718 0.226918 153.938 0.670918 153.278 1.28292L153.866 1.97892C154.358 1.48692 154.982 1.12692 155.69 1.10292C156.602 1.12692 157.178 1.66692 157.178 2.51892C157.178 3.46692 156.554 4.19892 154.742 4.19892V5.03892C156.77 5.03892 157.478 5.74692 157.478 6.80292C157.478 7.81092 156.734 8.43492 155.69 8.43492C154.694 8.43492 154.022 7.96692 153.506 7.42692L152.954 8.14692C153.53 8.77092 154.394 9.34692 155.774 9.34692ZM162.994 9.34692C164.482 9.34692 165.874 8.25492 165.874 6.32292C165.874 4.39092 164.686 3.52692 163.222 3.52692C162.694 3.52692 162.298 3.65892 161.914 3.87492L162.13 1.33092H165.454V0.394917H161.17L160.894 4.51092L161.482 4.87092C161.986 4.53492 162.358 4.35492 162.946 4.35492C164.05 4.35492 164.77 5.09892 164.77 6.35892C164.77 7.64292 163.93 8.43492 162.898 8.43492C161.878 8.43492 161.242 7.96692 160.738 7.46292L160.198 8.18292C160.786 8.77092 161.626 9.34692 162.994 9.34692ZM168.175 9.19092H172.999V8.27892H171.235V0.394917H170.395C169.915 0.670918 169.351 0.874918 168.571 1.01892V1.71492H170.131V8.27892H168.175V9.19092Z" fill="#858585"/>
</svg>
