<svg width="32" height="32" viewBox="0 0 32 32" fill="none" xmlns="http://www.w3.org/2000/svg">
<path d="M8.88889 26.4545C7.46667 26.4545 6.04444 25.1818 5.33333 24.6364C1.77778 22.0909 0.711111 21.1818 0 20.6364V28.2727C0 29.2767 0.796111 30.0909 1.77778 30.0909H16C16.9817 30.0909 17.7778 29.2767 17.7778 28.2727V20.6364C17.0667 21.1818 16 22.0909 12.4444 24.6364C11.7333 25.1818 10.3111 26.4545 8.88889 26.4545ZM16 15.5455H1.77778C0.796111 15.5455 0 16.3597 0 17.3636V18.2727C1.42222 19.3636 1.24444 19.3636 6.4 23.1818C6.93333 23.5455 8 24.6364 8.88889 24.6364C9.77778 24.6364 10.8444 23.5455 11.3778 23.3636C16.5333 19.5455 16.3556 19.5455 17.7778 18.4545V17.3636C17.7778 16.3597 16.9817 15.5455 16 15.5455ZM30.2222 10.0909H12.4444C11.4628 10.0909 10.6667 10.9051 10.6667 11.9091V13.7273H16C17.845 13.7273 19.3661 15.1716 19.5394 17.0125L19.5556 17V24.6364H30.2222C31.2039 24.6364 32 23.8222 32 22.8182V11.9091C32 10.9051 31.2039 10.0909 30.2222 10.0909ZM28.4444 17.3636H24.8889V13.7273H28.4444V17.3636ZM8.88889 11.9091C8.88889 9.90398 10.4839 8.27273 12.4444 8.27273H24.8889V2.81818C24.8889 1.8142 24.0928 1 23.1111 1H5.33333C4.35167 1 3.55556 1.8142 3.55556 2.81818V13.7273H8.88889V11.9091Z" fill="url(#paint0_linear)"/>
<defs>
<linearGradient id="paint0_linear" x1="4.87619" y1="3.90909" x2="24.653" y2="28.3641" gradientUnits="userSpaceOnUse">
<stop stop-color="#0F9036"/>
<stop offset="1" stop-color="#A9CC37"/>
</linearGradient>
</defs>
</svg>
