<svg width="14" height="14" viewBox="0 0 14 14" fill="none" xmlns="http://www.w3.org/2000/svg">
<path d="M12.5 14H1.5C0.671875 14 0 13.3281 0 12.5V1.5C0 0.671875 0.671875 0 1.5 0H12.5C13.3281 0 14 0.671875 14 1.5V12.5C14 13.3281 13.3281 14 12.5 14ZM11.5 6.125C11.5 5.91875 11.3313 5.75 11.125 5.75H8.25V2.875C8.25 2.66875 8.08125 2.5 7.875 2.5H6.125C5.91875 2.5 5.75 2.66875 5.75 2.875V5.75H2.875C2.66875 5.75 2.5 5.91875 2.5 6.125V7.875C2.5 8.08125 2.66875 8.25 2.875 8.25H5.75V11.125C5.75 11.3312 5.91875 11.5 6.125 11.5H7.875C8.08125 11.5 8.25 11.3312 8.25 11.125V8.25H11.125C11.3313 8.25 11.5 8.08125 11.5 7.875V6.125Z" fill="#3F93AF"/>
</svg>
