<svg width="40" height="40" viewBox="0 0 40 40" fill="none" xmlns="http://www.w3.org/2000/svg">
<path d="M40 0H0V40H40V0Z" fill="#DBBA6E"/>
<path d="M1.95703 28.9184V27.6675H2.22169L2.38036 28.5208L2.53716 27.6675H2.80244V28.9184H2.63844V27.9338L2.46472 28.9184H2.29444L2.12135 27.9338V28.9184H1.95703Z" fill="#ED1C24"/>
<path d="M2.94287 28.9184V27.6675H3.59198V27.8792H3.11973V28.1564H3.55874V28.3671H3.11973V28.7077H3.6086V28.9184H2.94287Z" fill="#ED1C24"/>
<path d="M3.7207 28.9184V27.6675H3.98537L4.14404 28.5208L4.30083 27.6675H4.56612V28.9184H4.4018V27.9338L4.22808 28.9184H4.0578L3.88471 27.9338V28.9184H3.7207Z" fill="#ED1C24"/>
<path d="M4.70752 27.6675H5.05748C5.10942 27.6659 5.16138 27.6701 5.21238 27.6801C5.24695 27.6885 5.27853 27.7063 5.30364 27.7315C5.33304 27.7614 5.35598 27.7971 5.37106 27.8362C5.38946 27.8827 5.39851 27.9324 5.39771 27.9823C5.39885 28.0377 5.38816 28.0926 5.36635 28.1435C5.3477 28.1882 5.31643 28.2264 5.27635 28.2536C5.32947 28.2757 5.37303 28.3159 5.39928 28.3671C5.42916 28.4252 5.44404 28.4899 5.44255 28.5553C5.44254 28.6117 5.43311 28.6678 5.41464 28.7211C5.39882 28.7692 5.37234 28.813 5.33719 28.8494C5.30511 28.8814 5.26353 28.9022 5.21866 28.9087C5.18918 28.9131 5.1181 28.9159 5.00542 28.9171H4.70752V27.6675ZM4.88407 27.8757V28.1649H5.00009C5.04288 28.166 5.08571 28.1646 5.12834 28.1608C5.14273 28.1587 5.15651 28.1536 5.16882 28.1459C5.18114 28.1382 5.1917 28.128 5.19984 28.1159C5.21837 28.0868 5.22745 28.0526 5.22587 28.0181C5.22724 27.9853 5.21954 27.9527 5.2036 27.924C5.19638 27.9123 5.18665 27.9022 5.1751 27.8946C5.16356 27.887 5.15048 27.8821 5.13681 27.8801C5.08662 27.8765 5.03627 27.8756 4.98598 27.8773L4.88407 27.8757ZM4.88407 28.3731V28.7077H5.04869C5.08931 28.7096 5.13002 28.7069 5.17005 28.6998C5.19672 28.6921 5.21927 28.6742 5.23277 28.65C5.25066 28.6176 5.25924 28.5809 5.25754 28.544C5.25818 28.5116 5.25165 28.4795 5.23841 28.4499C5.22691 28.4252 5.20749 28.405 5.18322 28.3925C5.13251 28.3769 5.07935 28.3709 5.02643 28.3746L4.88407 28.3731Z" fill="#ED1C24"/>
<path d="M5.55469 28.9184V27.6675H6.2038V27.8792H5.73155V28.1564H6.17056V28.3671H5.73155V28.7077H6.22042V28.9184H5.55469Z" fill="#ED1C24"/>
<path d="M6.33447 28.9184V27.6675H6.70669C6.80014 27.6675 6.86808 27.6788 6.91052 27.7014C6.95723 27.7285 6.99322 27.7708 7.01243 27.8212C7.03883 27.8834 7.05186 27.9505 7.05069 28.0181C7.05388 28.0996 7.03376 28.1803 6.99268 28.2508C6.97352 28.2811 6.94821 28.3071 6.9184 28.327C6.88858 28.3469 6.85492 28.3604 6.81958 28.3665C6.85594 28.3966 6.88764 28.4319 6.91366 28.4712C6.95204 28.5365 6.98568 28.6044 7.01431 28.6744L7.12125 28.9184H6.91146L6.78383 28.6462C6.75583 28.5833 6.72443 28.522 6.68976 28.4625C6.67679 28.4408 6.65842 28.4229 6.63645 28.4104C6.60814 28.3993 6.57775 28.3945 6.54739 28.3963H6.51165V28.9184H6.33447ZM6.51133 28.1972H6.64209C6.72708 28.1972 6.77976 28.1922 6.80108 28.1818C6.8238 28.1705 6.84178 28.1515 6.85188 28.1282C6.86479 28.0986 6.8709 28.0664 6.86975 28.0341C6.87132 27.9986 6.86319 27.9634 6.84624 27.9322C6.83912 27.9198 6.8295 27.909 6.81801 27.9006C6.80651 27.8921 6.79338 27.8861 6.77944 27.883C6.73661 27.879 6.69357 27.8776 6.65056 27.8789H6.51259L6.51133 28.1972Z" fill="#ED1C24"/>
<path d="M7.75614 28.3006C7.7537 28.1923 7.76722 28.0842 7.79628 27.9798C7.81473 27.9189 7.84222 27.8611 7.87781 27.8083C7.90692 27.763 7.94555 27.7246 7.99101 27.6957C8.07381 27.648 8.1718 27.6341 8.2646 27.6568C8.35741 27.6795 8.43788 27.7372 8.48929 27.8177C8.56685 27.9323 8.60563 28.0913 8.60563 28.2947C8.60563 28.4981 8.56716 28.6561 8.49023 28.7688C8.45729 28.8211 8.41164 28.8642 8.35755 28.894C8.30345 28.9239 8.24267 28.9395 8.18088 28.9395C8.1191 28.9395 8.05832 28.9239 8.00422 28.894C7.95012 28.8642 7.90448 28.8211 7.87154 28.7688C7.79481 28.6553 7.75635 28.4992 7.75614 28.3006ZM7.93833 28.2922C7.93833 28.4339 7.96122 28.5413 8.007 28.6142C8.05279 28.6873 8.11111 28.724 8.18135 28.724C8.2516 28.724 8.30992 28.6876 8.35508 28.6152C8.40023 28.5427 8.42281 28.4339 8.42281 28.2887C8.42281 28.1435 8.40086 28.0378 8.35664 27.9679C8.33977 27.936 8.31455 27.9093 8.28367 27.8907C8.2528 27.872 8.21743 27.8621 8.18135 27.8619C8.14504 27.8623 8.1095 27.8724 8.07848 27.8913C8.04746 27.9102 8.02212 27.9371 8.00512 27.9692C7.96059 28.0407 7.93833 28.1483 7.93833 28.2922V28.2922Z" fill="#ED1C24"/>
<path d="M8.70898 28.9184V27.6675H9.30949V27.8792H8.88584V28.1752H9.25085V28.3869H8.88584V28.92L8.70898 28.9184Z" fill="#ED1C24"/>
<path d="M10.5882 28.4586L10.7597 28.5361C10.7334 28.6726 10.6897 28.774 10.6286 28.8403C10.5993 28.8727 10.5634 28.8983 10.5232 28.9155C10.483 28.9327 10.4396 28.9409 10.3959 28.9397C10.2797 28.9397 10.1842 28.8829 10.1093 28.7694C10.0345 28.6559 9.99707 28.5008 9.99707 28.304C9.99707 28.095 10.0347 27.9333 10.11 27.8189C10.1852 27.7046 10.2841 27.647 10.4066 27.6462C10.4579 27.6454 10.5087 27.6574 10.5542 27.6811C10.5998 27.7048 10.6387 27.7394 10.6675 27.7819C10.7139 27.8512 10.7445 27.9297 10.7572 28.0121L10.5822 28.072C10.5756 28.0157 10.553 27.9624 10.5173 27.9183C10.5029 27.9006 10.4847 27.8863 10.464 27.8765C10.4433 27.8668 10.4207 27.8618 10.3978 27.8619C10.3329 27.8619 10.2802 27.8954 10.241 27.9619C10.2018 28.0284 10.1802 28.1363 10.1802 28.2852C10.1802 28.4433 10.2002 28.5559 10.2401 28.6233C10.28 28.6906 10.3323 28.7241 10.3969 28.7239C10.4206 28.7238 10.444 28.718 10.4651 28.7071C10.4862 28.6962 10.5044 28.6805 10.5182 28.6612C10.5579 28.6005 10.5819 28.5309 10.5882 28.4586V28.4586Z" fill="#ED1C24"/>
<path d="M10.876 28.9184V27.6675H11.5251V27.8792H11.0525V28.1564H11.4915V28.3671H11.0525V28.7077H11.5417V28.9184H10.876Z" fill="#ED1C24"/>
<path d="M11.6582 28.9184V27.6675H11.8304L12.1885 28.5045V27.6675H12.3528V28.9184H12.1753L11.8225 28.1031V28.9184H11.6582Z" fill="#ED1C24"/>
<path d="M12.7019 28.9184V27.8792H12.4419V27.6675H13.1393V27.8792H12.88V28.9184H12.7019Z" fill="#ED1C24"/>
<path d="M13.2168 28.9184V27.6675H13.5887C13.6828 27.6675 13.7502 27.6788 13.7928 27.7014C13.8394 27.7286 13.8752 27.7708 13.8944 27.8212C13.921 27.8834 13.934 27.9505 13.9327 28.0181C13.936 28.0996 13.916 28.1803 13.875 28.2508C13.8557 28.2811 13.8304 28.307 13.8005 28.3269C13.7706 28.3469 13.737 28.3603 13.7016 28.3665C13.738 28.3965 13.7697 28.4318 13.7957 28.4712C13.8342 28.5364 13.8678 28.6043 13.8963 28.6744L14.0033 28.9184H13.7919L13.664 28.6462C13.636 28.5833 13.6046 28.522 13.5699 28.4625C13.5575 28.441 13.5398 28.4231 13.5185 28.4104C13.4901 28.3993 13.4598 28.3945 13.4294 28.3963H13.3933V28.9184H13.2168ZM13.3933 28.1972H13.5244C13.6091 28.1972 13.6621 28.1922 13.6831 28.1818C13.7052 28.1704 13.7227 28.1517 13.7326 28.1288C13.7455 28.0992 13.7517 28.067 13.7505 28.0347C13.7521 27.9993 13.7439 27.964 13.727 27.9328C13.7199 27.9205 13.7103 27.9098 13.6989 27.9013C13.6874 27.8928 13.6744 27.8868 13.6605 27.8836C13.6176 27.8796 13.5744 27.8783 13.5313 27.8795H13.3933V28.1972Z" fill="#ED1C24"/>
<path d="M14.8539 28.9184H14.6614L14.5852 28.6343H14.2349L14.1628 28.9184H13.9746L14.3158 27.6675H14.5039L14.8539 28.9184ZM14.5284 28.4236L14.4077 27.9595L14.2894 28.4236H14.5284Z" fill="#ED1C24"/>
<path d="M14.9165 28.9184V27.6779H15.0934V28.7076H15.5324V28.9184H14.9165Z" fill="#ED1C24"/>
<path d="M16.2095 27.6675H16.5328C16.5893 27.6651 16.6457 27.6732 16.6993 27.6914C16.7538 27.7158 16.7998 27.756 16.8313 27.8068C16.8709 27.8689 16.8992 27.9374 16.915 28.0093C16.9359 28.1065 16.9454 28.2057 16.9436 28.305C16.9451 28.3945 16.936 28.4839 16.9166 28.5713C16.8998 28.6499 16.8679 28.7244 16.8225 28.7908C16.7904 28.8347 16.7471 28.8692 16.6971 28.8908C16.6472 28.9104 16.5938 28.9193 16.5403 28.9172H16.2095V27.6675ZM16.3863 27.8792V28.7077H16.5184C16.5544 28.7093 16.5905 28.7053 16.6253 28.6958C16.6536 28.6856 16.6784 28.6676 16.6968 28.6437C16.7205 28.6072 16.7362 28.566 16.7429 28.523C16.7564 28.4474 16.7624 28.3706 16.7607 28.2938C16.7627 28.2191 16.7567 28.1445 16.7429 28.0711C16.7346 28.0278 16.7175 27.9866 16.6927 27.9501C16.6727 27.9219 16.6439 27.9012 16.6109 27.8911C16.5632 27.881 16.5144 27.877 16.4657 27.8792H16.3863Z" fill="#ED1C24"/>
<path d="M17.0586 28.9184V27.6675H17.708V27.8792H17.2348V28.1564H17.6738V28.3671H17.2348V28.7077H17.724V28.9184H17.0586Z" fill="#ED1C24"/>
<path d="M17.8384 28.9184V27.6675H18.1206C18.2278 27.6675 18.2981 27.6738 18.3307 27.6864C18.3861 27.7104 18.4307 27.7539 18.4561 27.8087C18.4928 27.8845 18.5103 27.9681 18.5069 28.0523C18.5087 28.1181 18.4988 28.1838 18.4775 28.2461C18.4619 28.2921 18.4366 28.3341 18.4031 28.3693C18.3778 28.3961 18.3464 28.4165 18.3116 28.4286C18.2514 28.4424 18.1898 28.4484 18.1281 28.4465H18.013V28.9184H17.8384ZM18.0152 27.8792V28.2342H18.1118C18.1593 28.2379 18.2071 28.2311 18.2517 28.2144C18.2764 28.2001 18.2958 28.1781 18.3069 28.1517C18.3209 28.1213 18.3278 28.088 18.3269 28.0545C18.3285 28.015 18.3187 27.976 18.2987 27.9419C18.2833 27.9149 18.2578 27.8949 18.2278 27.8864C18.1858 27.8791 18.1432 27.8763 18.1005 27.878L18.0152 27.8792Z" fill="#ED1C24"/>
<path d="M18.5833 28.3006C18.5808 28.1923 18.5944 28.0842 18.6234 27.9798C18.6419 27.9189 18.6694 27.861 18.705 27.8083C18.7341 27.763 18.7727 27.7245 18.8182 27.6957C18.901 27.6479 18.9991 27.6339 19.0919 27.6566C19.1848 27.6794 19.2653 27.737 19.3168 27.8177C19.3943 27.9322 19.4331 28.0912 19.4331 28.2946C19.4331 28.498 19.3943 28.6561 19.3168 28.7688C19.2838 28.821 19.2382 28.8641 19.1841 28.894C19.13 28.9238 19.0692 28.9395 19.0074 28.9395C18.9456 28.9395 18.8848 28.9238 18.8307 28.894C18.7766 28.8641 18.731 28.821 18.6981 28.7688C18.6218 28.6552 18.5835 28.4992 18.5833 28.3006ZM18.7655 28.2921C18.7655 28.4339 18.7884 28.5412 18.8342 28.6142C18.8799 28.6872 18.9383 28.7239 19.0085 28.7239C19.0787 28.7239 19.1371 28.6875 19.1822 28.6151C19.2274 28.5427 19.25 28.4339 19.25 28.2887C19.25 28.1435 19.228 28.0378 19.1838 27.9679C19.1669 27.936 19.1417 27.9093 19.1108 27.8906C19.0799 27.8719 19.0446 27.862 19.0085 27.8619C18.9722 27.8622 18.9367 27.8724 18.9056 27.8913C18.8746 27.9101 18.8493 27.937 18.8323 27.9691C18.7877 28.0406 18.7655 28.1483 18.7655 28.2921Z" fill="#ED1C24"/>
<path d="M19.4902 28.5114L19.6621 28.4875C19.666 28.5527 19.6877 28.6155 19.7248 28.6691C19.7402 28.6881 19.7598 28.7032 19.782 28.7133C19.8043 28.7234 19.8286 28.7281 19.853 28.7271C19.877 28.729 19.901 28.7253 19.9233 28.7164C19.9456 28.7075 19.9656 28.6935 19.9816 28.6757C20.0102 28.642 20.0256 28.5991 20.0249 28.555C20.0257 28.5286 20.0194 28.5025 20.0067 28.4794C19.9914 28.4557 19.9696 28.4369 19.944 28.4251C19.9231 28.4151 19.8759 28.3969 19.8026 28.3706C19.7079 28.3369 19.6414 28.2957 19.6031 28.247C19.5484 28.1751 19.52 28.0865 19.5225 27.9962C19.5221 27.9346 19.5349 27.8736 19.5602 27.8174C19.583 27.7654 19.6212 27.7217 19.6696 27.692C19.7219 27.6617 19.7816 27.6466 19.8421 27.6484C19.9518 27.6484 20.0345 27.6828 20.0901 27.7516C20.1492 27.8311 20.1799 27.9282 20.1776 28.0272L20.0007 28.0385C19.9985 27.9884 19.9816 27.9401 19.9521 27.8996C19.9377 27.8849 19.9201 27.8735 19.9008 27.8662C19.8815 27.859 19.8608 27.856 19.8402 27.8576C19.818 27.8563 19.7959 27.8597 19.7751 27.8675C19.7543 27.8752 19.7354 27.8872 19.7195 27.9027C19.7099 27.9132 19.7025 27.9254 19.6977 27.9388C19.6929 27.9521 19.6908 27.9663 19.6916 27.9805C19.6908 28.0081 19.7 28.035 19.7176 28.0564C19.7399 28.0829 19.7941 28.1107 19.88 28.1398C19.9478 28.1601 20.0121 28.1905 20.071 28.2298C20.1138 28.2631 20.1472 28.3069 20.1679 28.3571C20.1929 28.4204 20.2047 28.4882 20.2027 28.5562C20.2031 28.6255 20.1889 28.6941 20.161 28.7575C20.1372 28.8154 20.0957 28.8642 20.0424 28.8971C19.9843 28.9294 19.9185 28.9452 19.8521 28.9429C19.7415 28.9429 19.6565 28.9063 19.5972 28.8331C19.5378 28.7599 19.5022 28.6527 19.4902 28.5114Z" fill="#ED1C24"/>
<path d="M20.3096 28.9184V27.6675H20.4864V28.9184H20.3096Z" fill="#ED1C24"/>
<path d="M20.8168 28.9184V27.8792H20.5571V27.6675H21.253V27.8792H20.9936V28.9184H20.8168Z" fill="#ED1C24"/>
<path d="M21.9351 28.9184V27.6675H22.1116V28.9184H21.9351Z" fill="#ED1C24"/>
<path d="M22.2461 28.9184V27.6675H22.4182L22.7764 28.5045V27.6675H22.9407V28.9184H22.7635L22.4104 28.1031V28.9184H22.2461Z" fill="#ED1C24"/>
<path d="M23.0483 28.5114L23.2205 28.4875C23.2244 28.5527 23.2461 28.6155 23.2832 28.6691C23.2986 28.6881 23.3181 28.7032 23.3403 28.7132C23.3625 28.7233 23.3868 28.7281 23.4111 28.7271C23.4351 28.729 23.4592 28.7254 23.4816 28.7164C23.5039 28.7075 23.5239 28.6936 23.54 28.6757C23.5686 28.642 23.584 28.5991 23.5833 28.555C23.5841 28.5286 23.5779 28.5025 23.5651 28.4794C23.5498 28.4557 23.528 28.4369 23.5024 28.4251C23.4817 28.4151 23.4344 28.3969 23.361 28.3706C23.2661 28.3369 23.1995 28.2957 23.1612 28.247C23.1066 28.175 23.0782 28.0865 23.0806 27.9962C23.0803 27.9345 23.0932 27.8736 23.1186 27.8174C23.1414 27.7654 23.1796 27.7217 23.228 27.692C23.2802 27.6617 23.3398 27.6466 23.4002 27.6484C23.5103 27.6484 23.5931 27.6828 23.6485 27.7516C23.7076 27.8311 23.7384 27.9282 23.736 28.0272L23.5592 28.0385C23.5569 27.9884 23.54 27.9401 23.5106 27.8996C23.496 27.8849 23.4785 27.8736 23.4592 27.8663C23.4399 27.8591 23.4192 27.8561 23.3986 27.8576C23.3764 27.8563 23.3543 27.8596 23.3335 27.8674C23.3127 27.8752 23.2938 27.8872 23.2779 27.9027C23.2682 27.9131 23.2608 27.9254 23.2559 27.9388C23.2511 27.9521 23.2489 27.9663 23.2497 27.9805C23.249 28.0081 23.2584 28.0351 23.276 28.0564C23.2982 28.0829 23.3523 28.1107 23.4384 28.1398C23.5062 28.1601 23.5706 28.1905 23.6294 28.2298C23.6722 28.263 23.7055 28.3069 23.726 28.3571C23.7512 28.4204 23.7632 28.4881 23.7611 28.5562C23.7616 28.6256 23.7472 28.6942 23.7191 28.7575C23.6955 28.8154 23.6541 28.8643 23.6009 28.8971C23.5428 28.9294 23.4769 28.9452 23.4105 28.9429C23.3624 28.9457 23.3142 28.9372 23.2699 28.9181C23.2256 28.8991 23.1864 28.87 23.1553 28.8331C23.0953 28.7587 23.0596 28.6514 23.0483 28.5114Z" fill="#ED1C24"/>
<path d="M23.8715 27.6675H24.0483V28.3452C24.0469 28.4149 24.0491 28.4846 24.0549 28.554C24.06 28.5996 24.0788 28.6426 24.1089 28.6773C24.1238 28.693 24.142 28.7054 24.1622 28.7134C24.1824 28.7215 24.2041 28.7251 24.2258 28.724C24.2468 28.7255 24.2679 28.7223 24.2875 28.7147C24.3071 28.7071 24.3248 28.6953 24.3393 28.6801C24.3653 28.6495 24.3812 28.6118 24.3851 28.5719C24.3916 28.5013 24.3942 28.4305 24.393 28.3596V27.6675H24.5698V28.3261C24.5722 28.4324 24.5674 28.5387 24.5554 28.6443C24.5481 28.6995 24.5302 28.7528 24.5027 28.8011C24.4774 28.8432 24.442 28.8783 24.3996 28.9031C24.3478 28.9305 24.2897 28.9436 24.2312 28.941C24.1651 28.9451 24.0992 28.9308 24.0408 28.8996C23.9983 28.8728 23.9632 28.8358 23.9386 28.792C23.9139 28.7492 23.8971 28.7022 23.889 28.6534C23.8753 28.5482 23.8695 28.4422 23.8715 28.3361V27.6675Z" fill="#ED1C24"/>
<path d="M24.7212 28.9184V27.6675H25.0931C25.187 27.6675 25.255 27.6788 25.2972 27.7014C25.3438 27.7287 25.3797 27.7709 25.3992 27.8212C25.4254 27.8835 25.4384 27.9505 25.4371 28.0181C25.4404 28.0996 25.4204 28.1803 25.3794 28.2508C25.3602 28.2811 25.3348 28.3071 25.3049 28.327C25.2751 28.3469 25.2414 28.3604 25.206 28.3665C25.2424 28.3965 25.2741 28.4318 25.3001 28.4712C25.3387 28.5363 25.3723 28.6043 25.4007 28.6744L25.5077 28.9184H25.2963L25.1684 28.6462C25.1405 28.5832 25.1091 28.5219 25.0743 28.4625C25.062 28.4411 25.0446 28.4232 25.0235 28.4104C24.9952 28.3993 24.9648 28.3945 24.9344 28.3963H24.8981V28.9184H24.7212ZM24.8981 28.1972H25.0288C25.1135 28.1972 25.1665 28.1922 25.1875 28.1818C25.2097 28.1705 25.2272 28.1517 25.237 28.1288C25.2501 28.0992 25.2563 28.0671 25.2552 28.0347C25.2569 27.9992 25.2486 27.9639 25.2314 27.9328C25.2243 27.9205 25.2147 27.9098 25.2033 27.9013C25.1918 27.8928 25.1788 27.8868 25.1649 27.8836C25.122 27.8796 25.0788 27.8783 25.0357 27.8795H24.8981V28.1972Z" fill="#ED1C24"/>
<path d="M26.3583 28.9184H26.1661L26.0899 28.6343H25.7393L25.6672 28.9184H25.479L25.8202 27.6675H26.0083L26.3583 28.9184ZM26.0328 28.4236L25.9121 27.9595L25.7938 28.4236H26.0328Z" fill="#ED1C24"/>
<path d="M26.4185 28.9184V27.6675H26.5919L26.949 28.5045V27.6675H27.113V28.9184H26.9368L26.5837 28.1031V28.9184H26.4185Z" fill="#ED1C24"/>
<path d="M27.8245 28.4586L27.996 28.5361C27.9697 28.6726 27.926 28.774 27.8649 28.8403C27.8356 28.8727 27.7997 28.8983 27.7595 28.9155C27.7193 28.9326 27.6759 28.9409 27.6323 28.9397C27.5158 28.9397 27.4202 28.8829 27.3453 28.7694C27.2705 28.6559 27.2332 28.5008 27.2334 28.304C27.2334 28.095 27.2709 27.9333 27.346 27.8189C27.421 27.7046 27.52 27.647 27.6429 27.6462C27.6943 27.6454 27.745 27.6574 27.7905 27.6811C27.8361 27.7048 27.875 27.7394 27.9038 27.7819C27.9502 27.8512 27.9808 27.9297 27.9935 28.0121L27.8185 28.072C27.8119 28.0157 27.7894 27.9624 27.7536 27.9183C27.7392 27.9006 27.721 27.8863 27.7003 27.8765C27.6796 27.8668 27.657 27.8618 27.6342 27.8619C27.5692 27.8619 27.5166 27.8955 27.4774 27.9619C27.4382 28.0284 27.4165 28.1363 27.4165 28.2852C27.4165 28.4433 27.4365 28.556 27.4764 28.6233C27.5164 28.6906 27.5686 28.7241 27.6332 28.7239C27.6569 28.7238 27.6803 28.718 27.7014 28.7071C27.7225 28.6962 27.7407 28.6805 27.7546 28.6612C27.7943 28.6005 27.8183 28.5309 27.8245 28.4586Z" fill="#ED1C24"/>
<path d="M28.1123 28.9184V27.6675H28.7617V27.8792H28.2892V28.1564H28.7282V28.3671H28.2892V28.7077H28.7784V28.9184H28.1123Z" fill="#ED1C24"/>
<path d="M30.0616 28.4586L30.2332 28.5361C30.2068 28.6726 30.163 28.774 30.1018 28.8403C30.0725 28.8727 30.0366 28.8983 29.9965 28.9155C29.9564 28.9327 29.913 28.9409 29.8694 28.9397C29.7532 28.9397 29.6575 28.8829 29.5825 28.7694C29.5074 28.6559 29.47 28.5008 29.4702 28.304C29.4702 28.095 29.5078 27.9333 29.5831 27.8189C29.6584 27.7046 29.7573 27.647 29.8801 27.6461C29.9314 27.6454 29.9821 27.6574 30.0276 27.6811C30.0732 27.7048 30.1121 27.7395 30.141 27.7819C30.1872 27.8512 30.2178 27.9298 30.2306 28.0121L30.0557 28.072C30.049 28.0157 30.0265 27.9624 29.9908 27.9183C29.9763 27.9006 29.958 27.8863 29.9373 27.8765C29.9165 27.8667 29.8939 27.8618 29.871 27.8619C29.8061 27.8619 29.7534 27.8954 29.7142 27.9619C29.675 28.0284 29.6537 28.1363 29.6537 28.2852C29.6537 28.4433 29.6736 28.5559 29.7136 28.6233C29.7535 28.6906 29.8057 28.7241 29.8703 28.7239C29.8941 28.7238 29.9174 28.718 29.9385 28.7071C29.9596 28.6962 29.9778 28.6805 29.9917 28.6612C30.0312 28.6004 30.0552 28.5309 30.0616 28.4586V28.4586Z" fill="#ED1C24"/>
<path d="M30.3132 28.3006C30.3111 28.1922 30.3249 28.0841 30.3543 27.9798C30.373 27.9189 30.4005 27.8611 30.4361 27.8083C30.4651 27.763 30.5037 27.7246 30.549 27.6957C30.6319 27.648 30.7299 27.634 30.8228 27.6568C30.9156 27.6795 30.9961 27.7371 31.0476 27.8177C31.125 27.9322 31.1636 28.0912 31.1636 28.2946C31.1636 28.498 31.1253 28.6561 31.0485 28.7688C31.0156 28.821 30.97 28.8641 30.9159 28.894C30.8618 28.9238 30.801 28.9395 30.7392 28.9395C30.6774 28.9395 30.6166 28.9238 30.5625 28.894C30.5084 28.8641 30.4628 28.821 30.4299 28.7688C30.3519 28.6552 30.313 28.4992 30.3132 28.3006ZM30.4954 28.2921C30.4954 28.4339 30.5183 28.5412 30.5641 28.6142C30.6098 28.6871 30.668 28.7237 30.7384 28.7239C30.8091 28.7239 30.8669 28.6877 30.9118 28.6151C30.9568 28.5426 30.98 28.4338 30.9814 28.2887C30.9814 28.1453 30.9594 28.0383 30.9153 27.9679C30.8985 27.9357 30.8733 27.9088 30.8423 27.89C30.8113 27.8712 30.7758 27.8613 30.7395 27.8613C30.7033 27.8613 30.6677 27.8712 30.6367 27.89C30.6057 27.9088 30.5805 27.9357 30.5638 27.9679C30.5182 28.0402 30.4954 28.1483 30.4954 28.2921Z" fill="#ED1C24"/>
<path d="M31.2656 28.9184V27.6675H31.6378C31.7313 27.6675 31.7992 27.6788 31.8417 27.7014C31.8883 27.7286 31.9243 27.7708 31.9436 27.8212C31.97 27.8834 31.983 27.9505 31.9818 28.0181C31.985 28.0996 31.9649 28.1803 31.9238 28.2508C31.9047 28.2811 31.8794 28.3071 31.8496 28.327C31.8197 28.3469 31.7861 28.3604 31.7507 28.3665C31.7871 28.3966 31.8188 28.4319 31.8448 28.4712C31.8832 28.5365 31.9168 28.6044 31.9455 28.6744L32.0524 28.9184H31.8407L31.7131 28.6462C31.6853 28.5832 31.6539 28.5219 31.619 28.4625C31.6062 28.4408 31.588 28.4228 31.566 28.4104C31.5377 28.3993 31.5073 28.3945 31.477 28.3963H31.4412V28.9184H31.2656ZM31.4425 28.1972H31.5732C31.6579 28.1972 31.7109 28.1922 31.7322 28.1818C31.7544 28.1704 31.7719 28.1517 31.7818 28.1288C31.7947 28.0992 31.8008 28.067 31.7997 28.0347C31.8012 27.9993 31.7931 27.964 31.7761 27.9328C31.769 27.9204 31.7594 27.9097 31.7479 27.9012C31.7364 27.8927 31.7233 27.8867 31.7093 27.8836C31.6665 27.8796 31.6235 27.8783 31.5805 27.8795H31.4425V28.1972Z" fill="#ED1C24"/>
<path d="M32.1133 28.9184V27.6675H32.3971C32.5045 27.6675 32.5746 27.6738 32.6072 27.6864C32.6625 27.7104 32.7072 27.7539 32.7326 27.8087C32.7693 27.8845 32.7867 27.9681 32.7834 28.0523C32.7851 28.1181 32.7753 28.1837 32.7542 28.2461C32.7386 28.292 32.7132 28.3341 32.6799 28.3693C32.6545 28.3961 32.623 28.4165 32.588 28.4286C32.528 28.4424 32.4665 28.4485 32.4049 28.4465H32.2895V28.9184H32.1133ZM32.2901 27.8792V28.2342H32.3867C32.4342 28.2379 32.482 28.2312 32.5266 28.2144C32.5513 28.2001 32.5707 28.1781 32.5818 28.1517C32.5958 28.1213 32.6027 28.088 32.6018 28.0545C32.6034 28.0151 32.5937 27.9761 32.5739 27.9419C32.5583 27.9149 32.5328 27.895 32.5028 27.8864C32.4607 27.8791 32.4181 27.8763 32.3754 27.878L32.2901 27.8792Z" fill="#ED1C24"/>
<path d="M32.8577 28.3006C32.8553 28.1923 32.8688 28.0842 32.8978 27.9798C32.9164 27.9189 32.9439 27.8611 32.9794 27.8083C33.0085 27.763 33.0471 27.7246 33.0926 27.6957C33.1754 27.648 33.2735 27.634 33.3663 27.6568C33.4592 27.6795 33.5397 27.7371 33.5912 27.8177C33.6685 27.9322 33.7072 28.0912 33.7072 28.2946C33.7072 28.498 33.6687 28.6561 33.5918 28.7688C33.5589 28.821 33.5132 28.8641 33.4591 28.894C33.405 28.9238 33.3442 28.9395 33.2824 28.9395C33.2207 28.9395 33.1599 28.9238 33.1058 28.894C33.0517 28.8641 33.006 28.821 32.9731 28.7688C32.8962 28.6552 32.8577 28.4992 32.8577 28.3006ZM33.0399 28.2921C33.0399 28.4339 33.0628 28.5412 33.1086 28.6142C33.1547 28.6872 33.2127 28.7239 33.2832 28.7239C33.3538 28.7239 33.4115 28.6875 33.4566 28.6151C33.5018 28.5427 33.5244 28.4339 33.5244 28.2887C33.5244 28.1435 33.5024 28.0378 33.4585 27.9679C33.4418 27.9357 33.4165 27.9088 33.3855 27.89C33.3546 27.8712 33.319 27.8613 33.2828 27.8613C33.2465 27.8613 33.211 27.8712 33.18 27.89C33.149 27.9088 33.1237 27.9357 33.107 27.9679C33.0625 28.0402 33.0401 28.1483 33.0399 28.2921V28.2921Z" fill="#ED1C24"/>
<path d="M33.8105 28.9184V27.6675H34.1825C34.2763 27.6675 34.3444 27.6788 34.3866 27.7014C34.4331 27.7287 34.4691 27.7709 34.4885 27.8212C34.5148 27.8835 34.5277 27.9505 34.5265 28.0181C34.5297 28.0996 34.5097 28.1803 34.4688 28.2508C34.4496 28.2811 34.4242 28.3071 34.3943 28.3271C34.3645 28.347 34.3307 28.3604 34.2953 28.3665C34.3318 28.3965 34.3635 28.4318 34.3894 28.4712C34.4281 28.5363 34.4617 28.6043 34.4901 28.6744L34.597 28.9184H34.3857L34.2577 28.6462C34.2299 28.5832 34.1984 28.5219 34.1636 28.4625C34.1508 28.4408 34.1325 28.4229 34.1106 28.4104C34.0823 28.3993 34.0519 28.3945 34.0216 28.3963H33.9858V28.9184H33.8105ZM33.9874 28.1972H34.1179C34.2025 28.1972 34.2555 28.1922 34.2765 28.1818C34.2987 28.1705 34.3163 28.1517 34.3261 28.1288C34.3392 28.0993 34.3455 28.0671 34.3443 28.0347C34.3459 27.9992 34.3376 27.9639 34.3204 27.9328C34.3133 27.9205 34.3038 27.9098 34.2923 27.9013C34.2809 27.8928 34.2678 27.8868 34.254 27.8836C34.2111 27.8796 34.1681 27.8783 34.1251 27.8795H33.9871L33.9874 28.1972Z" fill="#ED1C24"/>
<path d="M35.4472 28.9184H35.2546L35.1784 28.6343H34.8281L34.756 28.9184H34.5679L34.9087 27.6675H35.0969L35.4472 28.9184ZM35.121 28.4236L35.0003 27.9595L34.8821 28.4236H35.121Z" fill="#ED1C24"/>
<path d="M35.612 28.9184V27.8792H35.3521V27.6675H36.0479V27.8792H35.7886V28.9184H35.612Z" fill="#ED1C24"/>
<path d="M36.1206 28.9184V27.6675H36.2975V28.9184H36.1206Z" fill="#ED1C24"/>
<path d="M36.3948 28.3006C36.3923 28.1923 36.4057 28.0842 36.4347 27.9798C36.4533 27.9189 36.4809 27.8611 36.5165 27.8083C36.5455 27.763 36.584 27.7246 36.6294 27.6957C36.7122 27.648 36.8103 27.634 36.9031 27.6568C36.996 27.6795 37.0765 27.7371 37.128 27.8177C37.2053 27.9322 37.244 28.0912 37.244 28.2946C37.244 28.498 37.2053 28.6561 37.128 28.7688C37.095 28.821 37.0494 28.8641 36.9953 28.894C36.9412 28.9238 36.8804 28.9395 36.8186 28.9395C36.7568 28.9395 36.6961 28.9238 36.642 28.894C36.5879 28.8641 36.5422 28.821 36.5093 28.7688C36.4328 28.6552 36.3946 28.4992 36.3948 28.3006ZM36.577 28.2921C36.577 28.4339 36.5999 28.5412 36.6457 28.6142C36.6915 28.6871 36.7496 28.7237 36.82 28.7239C36.8907 28.7239 36.9485 28.6877 36.9934 28.6151C37.0384 28.5426 37.0611 28.4338 37.0615 28.2887C37.0615 28.1453 37.0394 28.0383 36.9953 27.9679C36.9786 27.9357 36.9533 27.9088 36.9224 27.89C36.8914 27.8712 36.8558 27.8613 36.8196 27.8613C36.7833 27.8613 36.7478 27.8712 36.7168 27.89C36.6858 27.9088 36.6606 27.9357 36.6438 27.9679C36.5993 28.0402 36.577 28.1483 36.577 28.2921V28.2921Z" fill="#ED1C24"/>
<path d="M37.3477 28.9184V27.6675H37.5198L37.8789 28.5045V27.6675H38.0432V28.9184H37.866L37.5129 28.1031V28.9184H37.3477Z" fill="#ED1C24"/>
<path d="M20.4177 22.2131H19.582V23.0488H20.4177V22.2131Z" fill="#ED1C24"/>
<path d="M20.4177 29.7355H19.582V30.5712H20.4177V29.7355Z" fill="#ED1C24"/>
<path d="M2.09624 25.9733L1.93945 25.5675C2.35442 25.4749 2.68128 25.3712 2.92002 25.2564C2.97207 25.2295 3.02256 25.2047 3.07242 25.1821L2.07806 25.3076C2.04628 25.1926 2.00687 25.0671 1.95984 24.9313L2.18624 24.9074C2.3249 24.7705 2.45586 24.6261 2.57853 24.4747C2.55595 24.3891 2.53024 24.2978 2.50076 24.2009L2.83002 24.1771C2.94113 24.0355 3.04395 23.8875 3.13796 23.734L3.44558 23.9507C3.4161 24.0046 3.38004 24.0666 3.33739 24.1366L3.80777 24.0993C3.78991 24.087 3.77294 24.0735 3.75696 24.0589L4.01724 23.7917C4.21512 23.9434 4.39851 24.1132 4.56506 24.2988L4.28786 24.5459C4.2496 24.5051 4.20883 24.4634 4.16619 24.4204L4.07211 24.4339L4.27155 24.5691C4.23473 24.6411 4.19412 24.7111 4.14988 24.7789L4.42364 24.755C4.40106 24.7303 4.37848 24.7077 4.35622 24.6876L4.63844 24.4339C4.80735 24.5846 4.98087 24.7897 5.15898 25.0492L4.86045 25.2869C4.80871 25.2125 4.75917 25.147 4.71182 25.0909L4.06929 25.1721C4.44139 25.3445 4.83312 25.4708 5.23581 25.5484L5.07714 25.956C4.54691 25.8145 4.03993 25.597 3.57195 25.3104C3.27133 25.5362 2.77943 25.7571 2.09624 25.9733ZM3.74662 25.7638C3.21395 26.1042 2.7348 26.3014 2.30916 26.3555L2.16743 25.9836C2.65683 25.9108 3.12237 25.7243 3.5268 25.4393L3.74662 25.7638ZM3.83442 26.3521C4.10346 26.214 4.35541 26.0449 4.58513 25.8482L4.84195 26.1592C4.28545 26.6148 3.6655 26.897 2.98211 27.0059L2.88803 26.6679C2.79584 26.6925 2.70908 26.7117 2.62776 26.7253L2.47097 26.3533C3.04 26.2516 3.57598 26.0137 4.03323 25.66L4.26308 25.9711C3.93424 26.2057 3.6401 26.3771 3.38067 26.4854C3.30854 26.5144 3.24207 26.5425 3.18123 26.5697C3.40525 26.5176 3.62392 26.4448 3.83442 26.3521V26.3521ZM3.63749 24.8303C3.7278 24.7063 3.81686 24.579 3.90466 24.4483L2.70773 24.56L2.87737 24.7102C2.84601 24.751 2.81215 24.7958 2.77609 24.8457L2.96423 24.8253C2.94333 24.8006 2.92859 24.7837 2.92002 24.7745L3.22451 24.5581C3.32799 24.6835 3.40461 24.7804 3.45436 24.8488L3.63749 24.8303Z" fill="#ED1C24"/>
<path d="M5.73583 24.6038V24.2015H6.13157V23.897H6.5339V24.1946H7.15259C7.18214 24.1935 7.21141 24.2006 7.23726 24.2149C7.24945 24.2215 7.26022 24.2304 7.26894 24.2412C7.27766 24.252 7.28416 24.2644 7.28806 24.2777C7.30411 24.3267 7.31092 24.3782 7.30813 24.4297C7.30813 24.9189 7.30363 25.3506 7.29464 25.7248C7.27374 26.3675 7.17799 26.7542 7.0074 26.8851C6.89012 26.9777 6.64888 26.9732 6.28366 26.8716L6.27362 26.3846C6.38668 26.4278 6.5031 26.4617 6.6217 26.4859C6.70072 26.4995 6.74807 26.495 6.76375 26.4724C6.79762 26.4342 6.82584 26.3598 6.84842 26.2495C6.86179 26.1654 6.87079 26.0808 6.87538 25.9958C6.90235 25.1596 6.90235 24.7064 6.87538 24.6364C6.87024 24.6265 6.86252 24.6181 6.85304 24.6121C6.84355 24.6062 6.83264 24.6028 6.82145 24.6025H6.527C6.51822 24.7468 6.4901 25.0354 6.44264 25.4683C6.33435 26.1164 6.18896 26.5898 6.00645 26.8885L5.59033 26.7945C5.93527 26.1518 6.11453 25.4214 6.12812 24.6032L5.73583 24.6038ZM8.64053 26.8898H7.57875C7.50662 26.8898 7.47056 26.8526 7.47056 26.7782V24.1202C7.47265 24.0481 7.50871 24.0121 7.57875 24.0121H8.64053C8.71495 24.0141 8.75216 24.0502 8.75216 24.1202V26.7797C8.75216 26.8531 8.71495 26.8898 8.64053 26.8898V26.8898ZM7.88982 24.4144C7.87853 24.4165 7.87288 24.4221 7.87288 24.4313V26.4662C7.87508 26.4796 7.88072 26.4862 7.88982 26.4862H8.32883C8.33157 26.4866 8.33438 26.4864 8.33702 26.4855C8.33966 26.4847 8.34206 26.4832 8.34404 26.4813C8.34602 26.4793 8.34752 26.477 8.34841 26.4743C8.34931 26.4717 8.34959 26.4689 8.34921 26.4662V24.4313C8.34921 24.42 8.34231 24.4144 8.32883 24.4144H7.88982Z" fill="#ED1C24"/>
<path d="M10.3359 26.0105V25.6082H11.1543C11.1048 25.5037 11.0428 25.3898 10.9683 25.2664H11.1781L11.5466 24.9892H10.5692V24.6788C10.4634 24.8881 10.3304 25.0825 10.1737 25.257C10.1591 25.2671 10.1465 25.2797 10.1364 25.2943V26.9039H9.73409V25.6722C9.67984 25.7173 9.62465 25.7616 9.56852 25.8042L9.24365 25.5304C9.47698 25.3573 9.69537 25.165 9.89653 24.9553C10.0257 24.804 10.1326 24.6351 10.2142 24.4536H9.43023V24.0516H10.3434C10.366 23.9638 10.3885 23.8747 10.4111 23.7844L10.8169 23.8725C10.8034 23.9353 10.7896 23.9955 10.7761 24.0516H12.3688V24.4539H10.6573C10.646 24.4903 10.6334 24.526 10.62 24.5621C10.6112 24.5729 10.6054 24.5857 10.603 24.5994H12.0141L12.3387 24.8901L11.561 25.5091C11.5745 25.5405 11.588 25.5718 11.6015 25.6073H12.4099V26.0096H11.726C11.7551 26.1349 11.7708 26.2629 11.773 26.3915C11.7642 26.6424 11.6819 26.8149 11.5262 26.9089C11.3172 27.0375 10.9926 27.024 10.5525 26.8685L10.5692 26.4053C10.7924 26.5044 10.9559 26.5585 11.0596 26.5675C11.1522 26.5764 11.2165 26.566 11.2524 26.5361C11.2904 26.5081 11.3187 26.4691 11.3337 26.4245C11.3606 26.3298 11.3502 26.1912 11.3023 26.0087L10.3359 26.0105Z" fill="#ED1C24"/>
<path d="M13.5972 26.5649C13.6307 26.5449 13.6477 26.5232 13.6477 26.5022V25.8346H13.0324V25.4583H14.5643V25.8346H14.0503V26.7239C14.0514 26.7543 14.0458 26.7845 14.0342 26.8125C14.0225 26.8405 14.0049 26.8657 13.9826 26.8863C13.9307 26.931 13.8694 26.9631 13.8032 26.9804C13.6838 27.0118 13.508 26.9804 13.2758 26.8863V26.5988C13.2576 26.6301 13.241 26.6615 13.225 26.69L12.8882 26.5176C13.0345 26.2609 13.136 26.0468 13.1927 25.8754L13.5376 26.0321C13.4813 26.1901 13.4135 26.3438 13.3347 26.4919C13.4865 26.5536 13.5746 26.5787 13.5972 26.5649ZM13.6207 24.3874H13.0324V24.0111H13.6207V23.8421H14.023V24.0111H14.5643V24.3874H14.023V24.4991H14.4423V24.8753H13.0999V24.4991H13.6207V24.3874ZM14.362 24.9722V25.3485H13.208V24.9722H14.362ZM14.6088 27.0014L14.2773 26.707C14.39 26.6366 14.4934 26.5523 14.585 26.4561L14.3416 26.5502C14.2745 26.3821 14.1905 26.2212 14.0908 26.0701L14.4288 25.9111C14.5176 26.058 14.5967 26.2105 14.6656 26.3677C14.9518 26.0123 15.095 25.5502 15.0952 24.9813V24.4887H15.0409C14.9914 24.7975 14.9091 25.0602 14.7941 25.2767L14.4053 25.1786C14.6086 24.7713 14.7128 24.3218 14.7095 23.8666H15.0983C15.0917 23.9456 15.087 24.0234 15.0848 24.0999H15.9033L16.1541 24.2419C16.1173 24.6373 16.0518 25.0295 15.9581 25.4153L15.5658 25.3526C15.6536 25.0709 15.718 24.7825 15.7584 24.4903H15.4981V24.9842C15.4977 25.0633 15.4932 25.1423 15.4846 25.2209C15.5386 25.5725 15.6129 25.8464 15.7076 26.0425C15.8184 26.2745 15.9961 26.5191 16.2407 26.7763L15.8452 26.9792C15.625 26.7086 15.4425 26.4095 15.3028 26.0898C15.1374 26.4743 14.9059 26.7782 14.6082 27.0014H14.6088Z" fill="#ED1C24"/>
<path d="M18.7754 26.9168H18.3731V26.0849C18.0978 26.3826 17.8283 26.6021 17.5647 26.7434L17.3138 26.4612V26.9143H16.9121V25.4029L16.5537 25.2439C16.862 24.8285 17.064 24.3441 17.142 23.8328L17.5446 23.9071C17.5603 23.8757 17.5929 23.8597 17.6425 23.8597H19.5161C19.5903 23.8622 19.6274 23.8983 19.6274 23.9679V25.0027C19.6274 25.0769 19.5903 25.1142 19.5161 25.1144H18.7754V25.2799H19.7221V25.6826H18.9241C19.1473 25.9598 19.4652 26.2202 19.8777 26.4637L19.5566 26.7509C19.2116 26.5097 18.9512 26.2877 18.7754 26.0849V26.9168ZM18.2191 25.686H17.3653V25.2834H18.3731V25.1178H17.6425C17.5703 25.1178 17.5343 25.0806 17.5343 25.0062V23.9917C17.4818 24.2482 17.4084 24.4999 17.3148 24.7443V26.4063C17.5213 26.2944 17.7152 26.1606 17.893 26.0071C18.0089 25.9077 18.1179 25.8004 18.2191 25.686V25.686ZM17.9551 24.2658C17.9438 24.268 17.9385 24.2737 17.9385 24.2828V24.6951C17.9407 24.7086 17.9463 24.7155 17.9551 24.7155H19.2063C19.2091 24.7159 19.2119 24.7157 19.2146 24.7148C19.2172 24.7139 19.2197 24.7124 19.2216 24.7105C19.2236 24.7085 19.2251 24.7061 19.226 24.7034C19.2269 24.7007 19.2271 24.6979 19.2267 24.6951V24.2828C19.2267 24.2715 19.2201 24.2658 19.2063 24.2658H17.9551Z" fill="#ED1C24"/>
<path d="M21.6511 26.5684C21.5599 26.7165 21.4508 26.8527 21.3263 26.9742L20.9813 26.7478C21.2374 26.4949 21.4327 26.1873 21.5527 25.8481H21.3363C21.3204 26.0128 21.2719 26.1391 21.1908 26.2269C21.136 26.2899 21.0627 26.3338 20.9813 26.3523C20.8869 26.3715 20.789 26.3633 20.6991 26.3288V26.9137H20.3228V23.9208C20.3216 23.9123 20.3224 23.9035 20.3251 23.8953C20.3278 23.887 20.3323 23.8795 20.3384 23.8733C20.3445 23.8671 20.3519 23.8624 20.36 23.8595C20.3682 23.8566 20.3769 23.8556 20.3855 23.8566H21.0619L21.2893 24.0203L21.2297 24.2827C21.7281 24.1182 22.0549 23.9344 22.2103 23.7314L22.5586 23.8462C22.545 23.8634 22.5325 23.8815 22.5213 23.9005C22.801 24.0717 23.1335 24.1979 23.5188 24.2793L23.362 24.6581C23.22 24.6104 23.0905 24.564 22.9732 24.5226V24.7797H21.7001V24.5022C21.5692 24.5649 21.4283 24.6277 21.2774 24.6904L21.1833 24.484L21.1043 24.8472C21.0861 24.9353 21.0917 25.004 21.1212 25.05C21.1918 25.1802 21.2517 25.3159 21.3002 25.4558V24.9149C21.2992 24.908 21.2999 24.901 21.3021 24.8943C21.3043 24.8877 21.308 24.8817 21.3129 24.8768C21.3179 24.8718 21.3239 24.8681 21.3305 24.8659C21.3371 24.8637 21.3441 24.8631 21.351 24.8641H22.2438C22.2799 24.8641 22.2981 24.881 22.2981 24.9149V25.7929C22.2991 25.8003 22.2984 25.8078 22.2961 25.8148C22.2937 25.8219 22.2898 25.8283 22.2845 25.8335C22.2792 25.8388 22.2728 25.8427 22.2657 25.845C22.2587 25.8473 22.2512 25.848 22.2438 25.8469H21.6138L21.9384 25.9644C21.9092 26.0388 21.8797 26.1099 21.8506 26.1774C22.0061 26.3028 22.156 26.437 22.3003 26.58L22.0136 26.8795C21.9189 26.767 21.8096 26.6453 21.6856 26.5145C21.6715 26.5345 21.6599 26.5527 21.6511 26.5684ZM20.907 24.1912H20.7483C20.717 24.1937 20.7007 24.2093 20.7007 24.2385V25.9124C20.7237 25.9309 20.7487 25.9468 20.7753 25.9597C20.8021 25.9709 20.8308 25.9767 20.8598 25.9767C20.8888 25.9767 20.9176 25.9709 20.9443 25.9597C20.9735 25.9394 20.9926 25.8754 21.0017 25.7669C21.0017 25.5867 20.9138 25.3411 20.738 25.03C20.7223 25.0005 20.7258 24.9622 20.7483 24.9149L20.907 24.1912ZM21.6881 25.2119C21.6769 25.2141 21.6725 25.2197 21.6747 25.2288V25.4797C21.674 25.4841 21.6751 25.4886 21.6776 25.4924C21.68 25.4961 21.6838 25.4989 21.6881 25.5H21.9048C21.9158 25.4953 21.9215 25.4887 21.9215 25.4797V25.2288C21.9193 25.2175 21.9136 25.2119 21.9048 25.2119H21.6881ZM22.7568 24.4307C22.7429 24.4215 22.7282 24.4135 22.7129 24.4069C22.5731 24.3348 22.4277 24.2503 22.2767 24.1535C22.1393 24.2564 21.9946 24.349 21.8437 24.4307H22.7568ZM23.5449 26.7484L23.2504 27.0425C23.1308 26.8914 22.9866 26.7269 22.8177 26.549V26.5521C22.7376 26.7018 22.64 26.8413 22.527 26.9679L22.1686 26.765C22.4062 26.5037 22.5782 26.1895 22.6703 25.8484H22.4194C22.3855 25.8484 22.3686 25.8305 22.3686 25.7945V24.9014C22.3676 24.8945 22.3682 24.8875 22.3704 24.8809C22.3726 24.8742 22.3764 24.8682 22.3813 24.8633C22.3862 24.8584 22.3922 24.8546 22.3989 24.8524C22.4055 24.8502 22.4125 24.8496 22.4194 24.8506H23.2974C23.3335 24.8506 23.3517 24.8675 23.3517 24.9014V25.7942C23.3527 25.8015 23.3521 25.809 23.3497 25.8161C23.3474 25.8231 23.3434 25.8295 23.3381 25.8348C23.3328 25.84 23.3264 25.844 23.3194 25.8463C23.3123 25.8486 23.3048 25.8492 23.2974 25.8481H22.706L23.0613 25.9497C23.0318 26.0397 23.0027 26.1234 22.9732 26.2006C23.1697 26.3737 23.3603 26.5563 23.5449 26.7484ZM22.7568 25.199C22.7455 25.2012 22.7411 25.2068 22.7433 25.2159V25.4797C22.7427 25.4841 22.7437 25.4887 22.7462 25.4924C22.7486 25.4962 22.7525 25.4989 22.7568 25.5H22.9597C22.971 25.4953 22.9766 25.4887 22.9766 25.4797V25.2159C22.9743 25.2046 22.9687 25.199 22.9597 25.199H22.7568Z" fill="#ED1C24"/>
<path d="M24.2555 25.909L24.5293 25.7522H24.0561V25.3511H25.3274V25.0908H24.5701V24.8541C24.4166 24.9306 24.2543 25.0072 24.0831 25.0839L23.8667 24.6581C24.6626 24.3874 25.1822 24.083 25.4255 23.7449L25.8388 23.8566C25.8205 23.8816 25.8035 23.9075 25.788 23.9343C26.2135 24.252 26.6922 24.4913 27.2016 24.6411L26.9783 25.0639C26.8092 24.9938 26.6524 24.925 26.508 24.8575V25.0908H25.7447V25.3511H26.9959V25.7534H26.4638L26.7645 25.9227C26.6585 26.137 26.5616 26.3297 26.4738 26.5007H26.9539V26.9033H24.0966V26.5007H24.5845C24.4926 26.2941 24.3825 26.0961 24.2555 25.909V25.909ZM25.3274 26.5007V25.7534H24.6375C24.7818 25.9677 24.9042 26.196 25.0028 26.4348L24.8711 26.5022L25.3274 26.5007ZM26.1837 24.6885C26.1587 24.6725 26.1351 24.6571 26.1126 24.6443C25.9088 24.5223 25.7126 24.3879 25.5252 24.242C25.3831 24.3705 25.17 24.5194 24.8861 24.6885H26.1837ZM26.0207 26.5007C26.1639 26.2599 26.2916 26.0103 26.4032 25.7534H25.7447V26.5007H26.0207Z" fill="#ED1C24"/>
<path d="M27.9596 26.3407V26.9256H27.5833V25.2395C27.5816 25.228 27.5827 25.2163 27.5864 25.2053C27.59 25.1944 27.5962 25.1844 27.6044 25.1762C27.6126 25.168 27.6225 25.1619 27.6335 25.1582C27.6445 25.1545 27.6562 25.1535 27.6676 25.1551H29.196C29.2546 25.1551 29.2841 25.1833 29.2841 25.2395V26.6292L29.815 26.5515V25.9227H29.3694C29.3619 25.9232 29.3544 25.9219 29.3474 25.9191C29.3404 25.9163 29.3341 25.912 29.3289 25.9065C29.3238 25.901 29.3199 25.8944 29.3176 25.8873C29.3153 25.8801 29.3145 25.8725 29.3155 25.865V24.2216C29.3144 24.2142 29.3151 24.2068 29.3174 24.1998C29.3198 24.1927 29.3237 24.1863 29.329 24.1811C29.3342 24.1759 29.3406 24.1719 29.3476 24.1696C29.3546 24.1673 29.3621 24.1666 29.3694 24.1676H29.8159V23.8431H30.1922V24.1676H30.6485C30.6871 24.1676 30.7062 24.1858 30.7062 24.2216V25.865C30.7069 25.8728 30.7059 25.8806 30.7033 25.888C30.7006 25.8953 30.6964 25.9019 30.6909 25.9075C30.6854 25.913 30.6787 25.9172 30.6714 25.9198C30.6641 25.9225 30.6563 25.9235 30.6485 25.9227H30.1913V26.5007L30.3368 26.4806C30.2778 26.3094 30.2406 26.1989 30.2252 26.1492L30.5836 26.051C30.709 26.4273 30.7926 26.7147 30.8345 26.9133L30.4691 26.9811C30.4578 26.9403 30.4478 26.8986 30.4378 26.8556L29.3556 27.0247L29.2816 26.717C29.2772 26.8295 29.2197 26.9163 29.1091 26.9773C28.9898 27.0338 28.8218 27.0518 28.6052 27.0316L28.5851 26.8353H28.2468V26.3407H27.9596ZM29.1126 25.0692H27.699C27.6676 25.0692 27.6516 25.0522 27.6516 25.0184V24.3501C27.6538 24.3188 27.6698 24.3028 27.699 24.3028H29.1126C29.1465 24.305 29.1634 24.321 29.1634 24.3501V25.0196C29.1644 25.0265 29.1638 25.0336 29.1616 25.0402C29.1594 25.0468 29.1556 25.0528 29.1507 25.0578C29.1458 25.0627 29.1398 25.0664 29.1331 25.0686C29.1265 25.0708 29.1195 25.0714 29.1126 25.0704V25.0692ZM29.1361 23.8619V24.2382H27.672V23.8635L29.1361 23.8619ZM28.5952 26.6261C28.6987 26.6553 28.7711 26.6631 28.8115 26.6496C28.8768 26.6158 28.9097 26.5741 28.9097 26.5242V25.9767H28.5983C28.5042 25.9767 28.4563 25.9284 28.4563 25.8312V25.4627H28.3819C28.3806 25.4991 28.3761 25.5353 28.3685 25.5709C28.3622 25.5871 28.3588 25.6043 28.3584 25.6217C28.3089 25.7749 28.1759 25.9057 27.9596 26.014V26.0341H28.8928V26.3407H28.5952V26.6261ZM28.0743 25.4627H27.9865C27.9683 25.4649 27.9596 25.474 27.9596 25.4897V25.6656C28.003 25.6332 28.0387 25.5917 28.0643 25.5439C28.0699 25.5172 28.0732 25.49 28.0743 25.4627V25.4627ZM28.0405 24.6104C28.0292 24.6129 28.0248 24.6186 28.027 24.6273V24.7415C28.0264 24.7459 28.0274 24.7505 28.0299 24.7542C28.0323 24.758 28.0361 24.7607 28.0405 24.7619H28.7711C28.7824 24.7572 28.788 24.7506 28.788 24.7415V24.6264C28.7855 24.6151 28.7799 24.6095 28.7711 24.6095L28.0405 24.6104ZM28.9097 25.696V25.4897C28.9097 25.4718 28.8994 25.4627 28.8783 25.4627H28.7633V25.6195C28.7633 25.6713 28.788 25.6973 28.8376 25.6973L28.9097 25.696ZM29.8159 24.5565H29.7078C29.6965 24.5542 29.6908 24.5598 29.6908 24.5734V25.5142C29.693 25.5276 29.6987 25.5342 29.7078 25.5342H29.8159V24.5565ZM30.1922 25.5336H30.3105C30.3217 25.5336 30.3286 25.527 30.3308 25.5135V24.5728C30.3261 24.5593 30.3196 24.5537 30.3105 24.5558H30.1913L30.1922 25.5336Z" fill="#ED1C24"/>
<path d="M34.3555 25.5135V25.8616H33.9397L34.1592 26.0184C34.0775 26.1371 33.9894 26.2512 33.8951 26.3602C33.9719 26.457 34.0249 26.5054 34.0541 26.5054C34.0679 26.5054 34.0758 26.4953 34.078 26.474C34.0922 26.3789 34.099 26.2829 34.0983 26.1868L34.4702 26.2915C34.4182 26.6431 34.3471 26.8595 34.257 26.9406C34.2259 26.9673 34.1867 26.9829 34.1457 26.9848C33.9945 26.9848 33.8243 26.8563 33.6349 26.5991C33.3938 26.7728 33.0873 26.9071 32.7151 27.0018L32.5392 26.6499C32.9113 26.56 33.2089 26.4372 33.432 26.2815C33.3536 26.1492 33.2904 26.0084 33.2438 25.8619H32.6521C32.6463 25.861 32.6403 25.8615 32.6346 25.8631C32.6289 25.8648 32.6236 25.8676 32.6192 25.8715C32.6147 25.8754 32.6111 25.8801 32.6086 25.8855C32.6061 25.8909 32.6048 25.8967 32.6048 25.9027C32.7942 25.9863 32.9779 26.0765 33.156 26.1733L32.9836 26.5044C32.8732 26.43 32.7458 26.3522 32.6013 26.2711C32.5769 26.557 32.441 26.8219 32.2228 27.0083L31.9826 26.8563V26.9306H31.6063V25.8111C31.5838 25.8562 31.5646 25.8989 31.5489 25.9393L31.1802 25.8584C31.3701 25.5335 31.5007 25.1774 31.5659 24.8067H31.315V24.4304H31.6057V23.8431H31.982V24.4313H32.1106C32.084 24.4025 32.0558 24.3754 32.0259 24.3501L32.2626 24.0933C32.2717 24.0955 32.284 24.1068 32.3 24.1269C32.3518 24.0121 32.3992 23.8926 32.442 23.7684L32.7556 23.9174C32.691 24.0818 32.6166 24.2421 32.5326 24.3975C32.5505 24.4201 32.5696 24.4461 32.59 24.4752C32.6271 24.3886 32.6576 24.2993 32.6813 24.2081L32.9519 24.2827C32.9429 24.138 32.9373 23.988 32.935 23.8327L33.3138 23.8531C33.3138 23.9861 33.3149 24.1145 33.3172 24.2385L33.474 24.0795L33.5054 24.1109C33.5549 24.0005 33.6033 23.8867 33.6506 23.7694L33.9619 23.9262C33.8966 24.0871 33.8196 24.2432 33.7318 24.3931C33.7565 24.4266 33.7835 24.4652 33.813 24.5079C33.8929 24.3581 33.9542 24.199 33.9955 24.0343L34.3304 24.1259C34.3034 24.2513 34.2313 24.417 34.114 24.6229C34.0808 24.6646 34.0524 24.71 34.0294 24.7581L34.2865 24.6907C34.3879 25.0153 34.4487 25.2317 34.469 25.3398L34.1426 25.4C34.1335 25.3526 34.1222 25.3043 34.1087 25.2545L33.9227 25.2918C33.9756 25.338 34.0253 25.3878 34.0714 25.4408L33.9936 25.5151L34.3555 25.5135ZM33.1077 25.4085L32.8406 25.4527C32.834 25.4232 32.8271 25.394 32.8202 25.3646L32.3774 25.4154L32.0638 25.6082C32.0391 25.554 32.0118 25.5 31.9826 25.4458V26.717C32.0568 26.639 32.1184 26.55 32.1651 26.453C32.2088 26.3324 32.2301 26.2049 32.2278 26.0767V25.6148C32.2278 25.5473 32.2617 25.5135 32.3294 25.5135H33.1341C33.1234 25.479 33.1146 25.4439 33.1077 25.4085V25.4085ZM32.2363 25.0805C32.2948 25.0039 32.3557 24.9172 32.4188 24.8202C32.3562 24.7233 32.2873 24.6307 32.2125 24.543V24.8067H31.993C32.0557 24.8991 32.1184 24.9904 32.1811 25.0805H32.2363ZM32.7029 24.9487C32.6833 24.9747 32.6651 25.0019 32.6487 25.03L32.7264 25.0196C32.7155 24.9971 32.7073 24.9733 32.702 24.9487H32.7029ZM32.9666 24.4583C32.9305 24.5394 32.8843 24.6353 32.828 24.7459C32.789 24.7995 32.754 24.856 32.7233 24.9149L32.9905 24.8522C32.9989 24.8842 33.0094 24.9156 33.0218 24.9462C32.998 24.7901 32.9793 24.6277 32.9657 24.4593L32.9666 24.4583ZM33.3994 25.0265L33.484 25.0096C33.5314 24.9548 33.5755 24.8972 33.6161 24.8371C33.5316 24.6972 33.4366 24.5638 33.332 24.4382C33.347 24.6456 33.3692 24.8417 33.3984 25.0265H33.3994ZM33.66 25.3341L33.4593 25.3686C33.4731 25.4182 33.4844 25.4668 33.4931 25.5141H33.6656C33.6363 25.4858 33.6049 25.4598 33.5715 25.4364L33.66 25.3341ZM33.8086 25.8616H33.6126C33.6168 25.8679 33.6201 25.8748 33.6226 25.882C33.6398 25.9295 33.6601 25.9758 33.6835 26.0206C33.7233 25.971 33.7647 25.918 33.8077 25.8616H33.8086ZM33.9811 24.8302C33.9585 24.8616 33.9372 24.8929 33.9183 24.9284L34.0096 24.9114C33.9958 24.8776 33.987 24.8506 33.9801 24.8302H33.9811Z" fill="#ED1C24"/>
<path d="M36.3888 26.8999H35.999V26.4094H35.8231V26.0748H35.999V25.5104L35.7795 25.6524C35.7409 25.5781 35.7005 25.5025 35.6575 25.4257V26.9171H35.2687V25.7763C35.2463 25.8258 35.2238 25.872 35.2013 25.9149L34.8359 25.8271C35.045 25.4801 35.1809 25.1373 35.2436 24.7989H34.956V24.41H35.2671V23.8566H35.656V24.411H35.9068V24.7998H35.656V24.8042C35.7732 24.9618 35.8872 25.1264 35.9978 25.2978C36.003 25.2783 36.0151 25.2614 36.0319 25.2502C36.0487 25.239 36.069 25.2343 36.089 25.2369H36.7619V25.1391H35.93V24.8042H36.4101V24.7061H36.0382V24.3965H36.4101V24.3122H35.957V23.9782H36.4101V23.8431H36.7864V23.9782H37.1687V23.8566H37.545V23.9782H37.9777V24.3131H37.545V24.3965H37.9238V24.7042H37.545V24.8042H38.0467V25.1391H37.1404V25.2369H37.8369C37.8996 25.2369 37.931 25.2683 37.931 25.3285V26.0758H38.0595V26.4104H37.931V26.6437C37.9266 26.7678 37.8658 26.8637 37.7485 26.9312C37.6021 27.0033 37.3925 27.0259 37.1194 26.9989L37.0755 26.5693C37.2515 26.6053 37.3733 26.6121 37.4408 26.5897C37.5083 26.5584 37.5421 26.5154 37.5421 26.4612V26.4104H36.3891L36.3888 26.8999ZM36.7651 25.5709H36.4167C36.3985 25.5731 36.3897 25.5822 36.3897 25.5979V25.6556H36.766L36.7651 25.5709ZM36.7651 26.0748V25.9902H36.3888V26.0748H36.7651ZM37.1709 24.3131H36.7886V24.3965H37.1709V24.3131ZM37.1709 24.8033V24.7051H36.7886V24.8042L37.1709 24.8033ZM37.1395 25.6556H37.5418V25.5979C37.5418 25.58 37.5318 25.5709 37.5105 25.5709H37.1386L37.1395 25.6556ZM37.5418 26.0748V25.9902H37.1395V26.0748H37.5418Z" fill="#ED1C24"/>
<path d="M39.5823 32.2104H0.417969V33.5525H39.5823V32.2104Z" fill="#FFCA00"/>
<path d="M28.119 2.68427H11.8808C11.7005 2.68427 11.5275 2.75592 11.3999 2.88348C11.2723 3.01103 11.2007 3.18403 11.2007 3.36442V19.6026C11.2007 19.7829 11.2723 19.9559 11.3999 20.0835C11.5275 20.2111 11.7005 20.2827 11.8808 20.2827H28.119C28.2994 20.2827 28.4724 20.2111 28.5999 20.0835C28.7275 19.9559 28.7991 19.7829 28.7991 19.6026V3.36442C28.7991 3.18403 28.7275 3.01103 28.5999 2.88348C28.4724 2.75592 28.2994 2.68427 28.119 2.68427Z" fill="#004095"/>
<path d="M18.7416 4.72284L13.5619 5.99221C13.5619 5.99221 12.8626 6.20513 12.856 7.31176L12.8065 15.8264C12.8065 15.8264 12.7513 16.9076 14.0978 17.2526L19.4061 18.4385L19.4346 13.5545L18.5462 13.5495C18.5462 13.5495 19.0166 15.1651 17.212 15.1547L15.3596 15.1459C15.3596 15.1459 16.3067 13.7317 16.3339 9.06561L16.3383 8.31867C16.3383 8.31867 16.221 7.74136 16.9921 7.74575L18.699 7.75579L18.7416 4.72284Z" fill="#FFCA00"/>
<path d="M21.3385 4.73785L26.5034 6.06775C26.5034 6.06775 27.2002 6.28726 27.1933 7.39514L27.1438 15.9101C27.1438 15.9101 27.1852 16.992 25.8358 17.3212L20.5112 18.4457L20.5395 13.5617L21.4306 13.5667C21.4306 13.5667 20.9412 15.1769 22.7446 15.1876L24.5947 15.1983C24.5947 15.1983 23.6655 13.7727 23.6928 9.10697L23.6972 8.36002C23.6972 8.36002 23.8208 7.78397 23.0512 7.77958L21.3432 7.76955L21.3385 4.73785Z" fill="#FFCA00"/>
<path d="M39.5823 33.6939H0.417969V39.6416H39.5823V33.6939Z" fill="#004095"/>
<path d="M1.89355 39.0407V37.6942H2.0839V39.0407H1.89355Z" fill="white"/>
<path d="M2.17871 38.6018L2.36372 38.5761C2.36821 38.6461 2.39162 38.7136 2.43146 38.7714C2.44889 38.7905 2.47 38.8058 2.49351 38.8165C2.51702 38.8273 2.54245 38.8331 2.56828 38.8338C2.5941 38.8344 2.61979 38.8298 2.64381 38.8203C2.66782 38.8108 2.68967 38.7965 2.70804 38.7783C2.73883 38.7422 2.75543 38.696 2.75476 38.6485C2.75662 38.6189 2.74911 38.5895 2.73329 38.5645C2.71747 38.5394 2.69415 38.52 2.66664 38.509C2.64427 38.4981 2.59347 38.4784 2.51424 38.45C2.41233 38.414 2.34052 38.3694 2.29944 38.3171C2.24044 38.2392 2.2098 38.1435 2.21258 38.0458C2.21216 37.9795 2.22618 37.9139 2.25366 37.8536C2.27775 37.797 2.31885 37.7494 2.37125 37.7172C2.42745 37.6846 2.49165 37.6684 2.55658 37.6705C2.6749 37.6705 2.76396 37.7075 2.82375 37.7815C2.88354 37.8555 2.91489 37.9544 2.91782 38.0781L2.72779 38.09C2.72539 38.0362 2.70705 37.9842 2.67511 37.9408C2.65961 37.9248 2.64078 37.9125 2.61997 37.9046C2.59916 37.8967 2.57687 37.8936 2.55469 37.8953C2.53087 37.894 2.50703 37.8976 2.48468 37.906C2.46234 37.9143 2.44197 37.9273 2.42487 37.9439C2.41437 37.9551 2.40619 37.9682 2.4008 37.9826C2.39542 37.997 2.39294 38.0123 2.39351 38.0276C2.39291 38.0574 2.40291 38.0864 2.42174 38.1095C2.44557 38.1381 2.50379 38.1681 2.5964 38.1995C2.66946 38.221 2.73875 38.2536 2.8018 38.2964C2.84805 38.3319 2.88408 38.3791 2.90622 38.4331C2.93318 38.5013 2.94598 38.5743 2.94385 38.6476C2.94437 38.7222 2.92897 38.7961 2.89869 38.8643C2.87312 38.9265 2.82857 38.979 2.77138 39.0145C2.70873 39.0491 2.63785 39.0661 2.5663 39.0637C2.44714 39.0637 2.35567 39.0243 2.29191 38.9455C2.22815 38.8667 2.19042 38.7521 2.17871 38.6018Z" fill="white"/>
<path d="M3.01855 38.6017L3.20388 38.576C3.20837 38.6461 3.23178 38.7136 3.27161 38.7714C3.28814 38.7918 3.30922 38.8082 3.33318 38.8191C3.35713 38.8299 3.3833 38.8351 3.40959 38.8341C3.43539 38.8359 3.46126 38.8319 3.48527 38.8223C3.50928 38.8127 3.53079 38.7977 3.54819 38.7786C3.5789 38.7424 3.59539 38.6962 3.5946 38.6488C3.59659 38.6192 3.58916 38.5898 3.57339 38.5647C3.55761 38.5396 3.5343 38.5202 3.5068 38.5092C3.48464 38.4983 3.43384 38.4787 3.3544 38.4503C3.25217 38.4142 3.18068 38.3697 3.1396 38.3173C3.08046 38.2395 3.0498 38.1438 3.05273 38.0461C3.05237 37.9798 3.06627 37.9142 3.0935 37.8538C3.1178 37.7973 3.15898 37.7497 3.21141 37.7174C3.26761 37.6848 3.33181 37.6687 3.39673 37.6707C3.51506 37.6707 3.60411 37.7077 3.6639 37.7817C3.72369 37.8557 3.75505 37.9546 3.75798 38.0784L3.56763 38.0903C3.56532 38.0364 3.5471 37.9845 3.51527 37.941C3.49977 37.9251 3.48094 37.9127 3.46013 37.9048C3.43932 37.897 3.41703 37.8938 3.39485 37.8955C3.37102 37.8942 3.34718 37.8978 3.32483 37.9062C3.30248 37.9146 3.28212 37.9275 3.26503 37.9441C3.25448 37.9553 3.24627 37.9685 3.24089 37.9828C3.2355 37.9972 3.23305 38.0125 3.23367 38.0279C3.23299 38.0577 3.24312 38.0868 3.26221 38.1097C3.28604 38.1384 3.34426 38.1684 3.43687 38.1997C3.50993 38.2212 3.57922 38.2539 3.64227 38.2966C3.68843 38.3322 3.72435 38.3794 3.74637 38.4333C3.77334 38.5015 3.78614 38.5745 3.784 38.6478C3.78447 38.7224 3.76919 38.7962 3.73916 38.8645C3.71359 38.9267 3.66904 38.9793 3.61185 39.0147C3.5492 39.0494 3.47832 39.0664 3.40677 39.0639C3.28761 39.0639 3.19604 39.0245 3.13207 38.9457C3.0681 38.8669 3.03026 38.7522 3.01855 38.6017Z" fill="white"/>
<path d="M3.90551 37.6939H4.09586V38.423C4.09427 38.4981 4.09657 38.5733 4.10275 38.6481C4.1082 38.6973 4.12855 38.7436 4.16108 38.7808C4.17714 38.7977 4.19666 38.8109 4.21831 38.8196C4.23996 38.8282 4.26322 38.8321 4.28651 38.831C4.30909 38.8326 4.33174 38.8292 4.35284 38.821C4.37394 38.8128 4.39295 38.8001 4.4085 38.7836C4.43651 38.7508 4.4538 38.7102 4.45804 38.6673C4.46497 38.5913 4.46779 38.515 4.46651 38.4387V37.6939H4.65685V38.401C4.6593 38.5154 4.65406 38.6298 4.64117 38.7435C4.63354 38.803 4.61425 38.8604 4.58441 38.9125C4.55746 38.958 4.51923 38.9958 4.47341 39.0222C4.41774 39.0519 4.35516 39.066 4.29216 39.0633C4.2211 39.0676 4.15023 39.0522 4.08739 39.0188C4.04177 38.9898 4.00397 38.9501 3.97732 38.9031C3.95084 38.8569 3.93269 38.8063 3.9237 38.7538C3.90924 38.6405 3.90306 38.5262 3.9052 38.412L3.90551 37.6939Z" fill="white"/>
<path d="M4.81982 39.0407V37.6942H5.51911V37.9219H5.00985V38.2204H5.48305V38.4474H5.00985V38.8137H5.53667V39.0407H4.81982Z" fill="white"/>
<path d="M5.65869 37.6939H6.00677C6.06764 37.6911 6.12849 37.6999 6.18613 37.7196C6.24498 37.7463 6.29447 37.79 6.32818 37.8451C6.37086 37.9124 6.40133 37.9867 6.41818 38.0646C6.44073 38.1691 6.45125 38.2759 6.44954 38.3829C6.451 38.4792 6.44132 38.5754 6.42069 38.6695C6.40279 38.7545 6.3685 38.8352 6.31972 38.9072C6.28544 38.9542 6.23936 38.9913 6.18613 39.0147C6.13257 39.0357 6.07524 39.0455 6.01774 39.0433H5.65869V37.6939ZM5.84903 37.9216V38.8134H5.99109C6.02989 38.8153 6.06875 38.811 6.10617 38.8006C6.1367 38.7899 6.16341 38.7705 6.183 38.7447C6.20859 38.7053 6.22558 38.661 6.23286 38.6146C6.24757 38.5333 6.25408 38.4507 6.2523 38.3681C6.25435 38.2877 6.24783 38.2073 6.23286 38.1282C6.22388 38.0816 6.20554 38.0372 6.17892 37.9978C6.15713 37.9679 6.1262 37.9459 6.0908 37.9351C6.03931 37.9241 5.98661 37.9198 5.93401 37.9222L5.84903 37.9216Z" fill="white"/>
<path d="M6.90088 37.6939H7.27718C7.3331 37.6923 7.38903 37.6967 7.444 37.7071C7.48127 37.7164 7.51531 37.7357 7.54246 37.7629C7.57399 37.795 7.59864 37.8332 7.6149 37.8752C7.65563 37.9823 7.65315 38.101 7.608 38.2063C7.58796 38.2544 7.55441 38.2955 7.51142 38.3249C7.5687 38.3486 7.61563 38.3919 7.64375 38.4472C7.67584 38.5099 7.69179 38.5796 7.69016 38.6501C7.68981 38.711 7.67921 38.7714 7.6588 38.8288C7.64248 38.8806 7.6146 38.928 7.57727 38.9674C7.54265 39.0016 7.49786 39.0236 7.44964 39.0301C7.37335 39.0373 7.29673 39.0404 7.2201 39.0395H6.90088V37.6939ZM7.09122 37.9178V38.2292H7.21665C7.2628 38.2303 7.30896 38.2288 7.35494 38.2248C7.37039 38.2225 7.38519 38.217 7.39841 38.2087C7.41163 38.2004 7.42299 38.1895 7.43177 38.1765C7.45186 38.1453 7.46173 38.1086 7.45999 38.0715C7.46149 38.036 7.45313 38.0009 7.43585 37.9699C7.42807 37.9572 7.41761 37.9464 7.4052 37.9382C7.39279 37.9301 7.37874 37.9247 7.36404 37.9225C7.30991 37.9181 7.25558 37.9165 7.20129 37.9178H7.09122ZM7.09122 38.4534V38.8134H7.26745C7.3111 38.8153 7.35483 38.8126 7.3979 38.8053C7.42708 38.797 7.45185 38.7777 7.46689 38.7513C7.48633 38.7166 7.49557 38.677 7.49355 38.6372C7.49452 38.6018 7.48756 38.5667 7.47316 38.5343C7.46112 38.5072 7.44008 38.485 7.41358 38.4716C7.38756 38.4588 7.33142 38.4522 7.24488 38.4522L7.09122 38.4534Z" fill="white"/>
<path d="M8.05929 39.0407V38.4738L7.71436 37.6942H7.93731L8.15933 38.2273L8.37632 37.6942H8.59583L8.25027 38.4763V39.0407H8.05929Z" fill="white"/>
<path d="M9.55942 38.5453L9.74412 38.6287C9.7159 38.7758 9.66855 38.8849 9.60301 38.9564C9.57137 38.9913 9.53258 39.0189 9.48928 39.0373C9.44598 39.0558 9.3992 39.0647 9.35214 39.0633C9.22671 39.0633 9.12386 39.0022 9.04358 38.8799C8.9633 38.7576 8.92306 38.5904 8.92285 38.3782C8.92285 38.1538 8.9633 37.9798 9.04421 37.8561C9.12511 37.7323 9.23162 37.6703 9.36375 37.6701C9.41919 37.6691 9.47402 37.6819 9.52328 37.7073C9.57255 37.7328 9.61471 37.7701 9.64597 37.8159C9.6957 37.8906 9.72855 37.9753 9.74224 38.064L9.55409 38.1267C9.54686 38.0661 9.52261 38.0088 9.48416 37.9614C9.46859 37.9423 9.44893 37.9269 9.42662 37.9165C9.40431 37.906 9.37993 37.9007 9.35528 37.9009C9.28535 37.9009 9.22985 37.9366 9.18532 38.0081C9.14079 38.0796 9.12009 38.1963 9.12009 38.3562C9.12009 38.5264 9.14152 38.6476 9.18438 38.72C9.22734 38.7924 9.28284 38.8285 9.35152 38.8285C9.37717 38.8281 9.40238 38.8217 9.42506 38.8097C9.44775 38.7977 9.46725 38.7805 9.48197 38.7595C9.5174 38.7162 9.54374 38.6438 9.55942 38.5453Z" fill="white"/>
<path d="M9.86963 39.0407V37.6942H10.568V37.9219H10.06V38.2204H10.5329V38.4474H10.06V38.8137H10.5865V39.0407H9.86963Z" fill="white"/>
<path d="M10.7114 39.0407V37.6942H10.8964L11.2821 38.5932V37.6942H11.459V39.0407H11.268L10.888 38.1627V39.0407H10.7114Z" fill="white"/>
<path d="M11.8344 39.0407V37.9219H11.5547V37.6942H12.3035V37.9219H12.0244V39.0407H11.8344Z" fill="white"/>
<path d="M12.3887 39.0407V37.6942H12.7894C12.89 37.6942 12.9631 37.7062 13.0089 37.7303C13.0589 37.7598 13.0975 37.8053 13.1184 37.8595C13.1469 37.9265 13.1609 37.9989 13.1594 38.0718C13.1628 38.1596 13.1411 38.2467 13.0967 38.3226C13.0761 38.3554 13.0489 38.3835 13.0167 38.4051C12.9846 38.4267 12.9483 38.4414 12.9102 38.4481C12.9496 38.4803 12.984 38.5184 13.0121 38.5609C13.0536 38.6313 13.0897 38.7047 13.1202 38.7805L13.2353 39.0432H13.008L12.8703 38.75C12.8406 38.6823 12.8071 38.6162 12.77 38.5522C12.7561 38.5288 12.7365 38.5095 12.7129 38.496C12.6824 38.4842 12.6497 38.4791 12.617 38.481H12.5784V39.0407H12.3887ZM12.579 38.2637H12.7198C12.8111 38.2637 12.8681 38.258 12.8907 38.2471C12.9147 38.2349 12.9337 38.2147 12.9443 38.19C12.9581 38.1582 12.9646 38.1237 12.9635 38.089C12.9652 38.0508 12.9564 38.0128 12.9381 37.9793C12.9304 37.966 12.9202 37.9545 12.9078 37.9454C12.8955 37.9363 12.8815 37.9299 12.8666 37.9266C12.8204 37.9221 12.774 37.9205 12.7276 37.9219H12.579V38.2637Z" fill="white"/>
<path d="M14.1508 39.0407H13.9439L13.8617 38.7347H13.4842L13.4064 39.0407H13.2051L13.5723 37.6942H13.7736L14.1508 39.0407ZM13.8006 38.5076L13.6723 38.0078L13.5434 38.5076H13.8006Z" fill="white"/>
<path d="M14.2188 39.0408V37.7049H14.4091V38.8134H14.8823V39.0408H14.2188Z" fill="white"/>
<path d="M15.2827 37.6939H15.6305C15.6913 37.6911 15.7522 37.6999 15.8098 37.7196C15.8688 37.7462 15.9185 37.7899 15.9522 37.8451C15.9948 37.9124 16.0252 37.9867 16.0422 38.0646C16.0648 38.1691 16.0753 38.2759 16.0736 38.3829C16.075 38.4792 16.0653 38.5754 16.0447 38.6695C16.0265 38.7544 15.9923 38.8351 15.9437 38.9072C15.9093 38.9542 15.8632 38.9913 15.8098 39.0147C15.7563 39.0358 15.6989 39.0455 15.6414 39.0433H15.2827V37.6939ZM15.4731 37.9216V38.8134H15.6164C15.6552 38.8153 15.694 38.811 15.7314 38.8006C15.7619 38.7898 15.7886 38.7704 15.8083 38.7447C15.8339 38.7054 15.8509 38.661 15.8581 38.6146C15.8728 38.5333 15.8794 38.4507 15.8776 38.3681C15.8796 38.2877 15.8731 38.2073 15.8581 38.1282C15.8492 38.0816 15.8308 38.0372 15.8042 37.9978C15.7823 37.9679 15.7514 37.9459 15.7161 37.9351C15.6646 37.9241 15.6119 37.9198 15.5593 37.9222L15.4731 37.9216Z" fill="white"/>
<path d="M16.1958 39.0407V37.6942H16.8945V37.9219H16.3861V38.2204H16.8593V38.4474H16.3861V38.8137H16.9126V39.0407H16.1958Z" fill="white"/>
<path d="M17.0361 39.0407V37.6942H17.3409C17.4567 37.6942 17.5321 37.7009 17.567 37.7143C17.6269 37.7401 17.6752 37.787 17.7028 37.846C17.7422 37.9277 17.761 38.0178 17.7574 38.1085C17.7591 38.1793 17.7485 38.2498 17.726 38.317C17.709 38.3664 17.6816 38.4116 17.6457 38.4496C17.6184 38.4781 17.5846 38.4996 17.5473 38.5123C17.4825 38.5273 17.4161 38.5339 17.3497 38.5318H17.2243V39.0407H17.0361ZM17.2262 37.9219V38.3041H17.3306C17.4055 38.3041 17.456 38.2969 17.4808 38.2828C17.5072 38.2676 17.528 38.2444 17.5404 38.2166C17.5554 38.1838 17.5628 38.148 17.562 38.1119C17.5635 38.0694 17.5526 38.0273 17.5306 37.9909C17.514 37.9616 17.4865 37.9401 17.4541 37.931C17.409 37.9232 17.3632 37.9201 17.3174 37.9219H17.2262Z" fill="white"/>
<path d="M17.8377 38.3753C17.835 38.2589 17.8496 38.1426 17.881 38.0304C17.9008 37.9648 17.9304 37.9025 17.9688 37.8457C17.9999 37.7968 18.0414 37.7555 18.0905 37.7247C18.1796 37.6733 18.285 37.6583 18.3849 37.6826C18.4848 37.707 18.5715 37.7689 18.627 37.8554C18.7106 37.9788 18.7524 38.15 18.7524 38.3691C18.7524 38.5882 18.7106 38.7582 18.627 38.8793C18.5915 38.9356 18.5424 38.982 18.4842 39.0141C18.4259 39.0463 18.3605 39.0631 18.294 39.0631C18.2274 39.0631 18.162 39.0463 18.1038 39.0141C18.0455 38.982 17.9964 38.9356 17.9609 38.8793C17.8788 38.757 17.8377 38.589 17.8377 38.3753ZM18.034 38.3662C18.034 38.5186 18.0586 38.6336 18.1077 38.7112C18.1572 38.7899 18.2197 38.8294 18.2959 38.8294C18.3721 38.8294 18.4341 38.7902 18.484 38.7121C18.5339 38.634 18.5567 38.5171 18.5567 38.3609C18.5567 38.2048 18.5332 38.0916 18.4859 38.016C18.4678 37.9814 18.4406 37.9525 18.4073 37.9323C18.3739 37.912 18.3356 37.9014 18.2966 37.9014C18.2576 37.9014 18.2194 37.912 18.186 37.9323C18.1527 37.9525 18.1255 37.9814 18.1074 38.016C18.0585 38.0944 18.034 38.2111 18.034 38.3662Z" fill="white"/>
<path d="M18.8149 38.6017L19 38.576C19.0044 38.6461 19.0279 38.7137 19.068 38.7714C19.0844 38.7919 19.1055 38.8082 19.1294 38.8191C19.1533 38.83 19.1794 38.8351 19.2057 38.8341C19.2315 38.836 19.2573 38.8319 19.2814 38.8223C19.3054 38.8127 19.3269 38.7977 19.3443 38.7786C19.3751 38.7424 19.3917 38.6963 19.391 38.6488C19.3919 38.6204 19.385 38.5923 19.3712 38.5675C19.3546 38.5418 19.3309 38.5216 19.3029 38.5092C19.2807 38.4983 19.2299 38.4787 19.1505 38.4503C19.0486 38.4142 18.9771 38.3697 18.9357 38.3173C18.8768 38.2394 18.8462 38.1437 18.8491 38.0461C18.8486 37.9798 18.8625 37.9142 18.8899 37.8538C18.9142 37.7974 18.9552 37.7498 19.0075 37.7174C19.0637 37.6848 19.1279 37.6687 19.1928 37.6707C19.3113 37.6707 19.4004 37.7077 19.46 37.7817C19.5196 37.8557 19.5509 37.9546 19.554 38.0784L19.3637 38.0903C19.3612 38.0365 19.343 37.9846 19.3113 37.941C19.2958 37.9251 19.2769 37.9128 19.256 37.9049C19.2352 37.897 19.2128 37.8938 19.1906 37.8955C19.1668 37.8942 19.1429 37.8979 19.1206 37.9062C19.0983 37.9146 19.0779 37.9275 19.0608 37.9441C19.0503 37.9553 19.0421 37.9685 19.0367 37.9829C19.0313 37.9972 19.0289 38.0125 19.0294 38.0279C19.0288 38.0576 19.0388 38.0866 19.0577 38.1097C19.0818 38.1383 19.1398 38.1684 19.2326 38.1997C19.3056 38.2213 19.3749 38.254 19.438 38.2966C19.4841 38.3323 19.52 38.3794 19.5421 38.4333C19.5691 38.5015 19.5819 38.5745 19.5798 38.6478C19.5803 38.7224 19.5649 38.7963 19.5346 38.8645C19.5092 38.9268 19.4646 38.9794 19.4073 39.0147C19.3446 39.0494 19.2738 39.0664 19.2022 39.0639C19.0831 39.0639 18.9916 39.0245 18.9278 38.9457C18.8641 38.8669 18.8264 38.7522 18.8149 38.6017Z" fill="white"/>
<path d="M19.6963 39.0407V37.6942H19.8866V39.0407H19.6963Z" fill="white"/>
<path d="M20.2421 39.0407V37.9219H19.9624V37.6942H20.7115V37.9219H20.4325V39.0407H20.2421Z" fill="white"/>
<path d="M21.1177 39.0407V37.6942H21.308V39.0407H21.1177Z" fill="white"/>
<path d="M21.4526 39.0407V37.6942H21.6367L22.0224 38.5932V37.6942H22.2011V39.0407H22.0102L21.6301 38.1627V39.0407H21.4526Z" fill="white"/>
<path d="M22.3154 38.6017L22.5004 38.576C22.5049 38.6461 22.5284 38.7137 22.5685 38.7714C22.5849 38.7918 22.606 38.8082 22.6299 38.8191C22.6538 38.83 22.6799 38.8351 22.7061 38.8341C22.7319 38.8359 22.7578 38.8319 22.7818 38.8223C22.8059 38.8127 22.8274 38.7977 22.8448 38.7786C22.8755 38.7424 22.8922 38.6963 22.8915 38.6488C22.8924 38.6204 22.8855 38.5923 22.8717 38.5675C22.8551 38.5418 22.8313 38.5216 22.8034 38.5092C22.781 38.4983 22.7302 38.4787 22.651 38.4503C22.549 38.4142 22.4772 38.3697 22.4362 38.3173C22.3772 38.2394 22.3465 38.1437 22.3493 38.0461C22.3489 37.9798 22.3629 37.9142 22.3904 37.8538C22.4146 37.7973 22.4556 37.7497 22.508 37.7174C22.5642 37.6849 22.6284 37.6687 22.6933 37.6707C22.8118 37.6707 22.9009 37.7077 22.9605 37.7817C23.02 37.8557 23.0514 37.9546 23.0545 38.0784L22.8642 38.0903C22.8617 38.0365 22.8435 37.9846 22.8118 37.941C22.7962 37.9251 22.7774 37.9127 22.7565 37.9049C22.7356 37.897 22.7133 37.8938 22.6911 37.8955C22.6673 37.8942 22.6434 37.8979 22.6211 37.9062C22.5987 37.9146 22.5784 37.9275 22.5613 37.9441C22.5508 37.9553 22.5426 37.9685 22.5372 37.9829C22.5318 37.9972 22.5293 38.0125 22.5299 38.0279C22.5293 38.0576 22.5393 38.0866 22.5581 38.1097C22.5824 38.1384 22.6407 38.1683 22.7331 38.1997C22.8061 38.2213 22.8754 38.254 22.9385 38.2966C22.9846 38.3323 23.0205 38.3794 23.0426 38.4333C23.0696 38.5015 23.0824 38.5745 23.0803 38.6478C23.0808 38.7224 23.0654 38.7963 23.0351 38.8645C23.0096 38.9268 22.9651 38.9794 22.9078 39.0147C22.8451 39.0494 22.7743 39.0664 22.7027 39.0639C22.5835 39.0639 22.4921 39.0245 22.4283 38.9457C22.3646 38.8669 22.3269 38.7522 22.3154 38.6017Z" fill="white"/>
<path d="M23.2026 37.6939H23.3932V38.423C23.3917 38.4981 23.3941 38.5733 23.4005 38.6481C23.4059 38.6972 23.4262 38.7435 23.4585 38.7808C23.4745 38.7977 23.4941 38.8109 23.5157 38.8196C23.5374 38.8282 23.5606 38.8321 23.5839 38.831C23.6065 38.8326 23.6292 38.8292 23.6504 38.821C23.6715 38.8128 23.6906 38.8 23.7062 38.7836C23.7341 38.7508 23.7513 38.7102 23.7554 38.6673C23.7623 38.5913 23.7652 38.515 23.7639 38.4387V37.6939H23.9542V38.401C23.9567 38.5154 23.9516 38.6298 23.9389 38.7435C23.9311 38.803 23.9117 38.8604 23.8818 38.9125C23.8549 38.9579 23.8168 38.9957 23.7711 39.0222C23.7154 39.0518 23.6528 39.066 23.5899 39.0633C23.5187 39.0677 23.4477 39.0523 23.3848 39.0188C23.3392 38.9898 23.3014 38.9501 23.2747 38.9031C23.2482 38.8569 23.2301 38.8063 23.2214 38.7538C23.2066 38.6405 23.2004 38.5263 23.2026 38.412V37.6939Z" fill="white"/>
<path d="M24.1172 39.0407V37.6942H24.5176C24.6186 37.6942 24.6918 37.7062 24.7371 37.7303C24.7872 37.7597 24.8259 37.8053 24.8469 37.8595C24.8753 37.9266 24.8893 37.9989 24.888 38.0718C24.8915 38.1597 24.8697 38.2467 24.8253 38.3226C24.8047 38.3554 24.7776 38.3836 24.7455 38.4052C24.7134 38.4268 24.6771 38.4414 24.639 38.4481C24.6784 38.4804 24.7127 38.5185 24.7409 38.5609C24.7823 38.6314 24.8184 38.7047 24.8491 38.7805L24.9642 39.0432H24.7365L24.5992 38.75C24.5693 38.6823 24.5358 38.6163 24.4988 38.5522C24.4848 38.5288 24.4651 38.5095 24.4414 38.496C24.411 38.4842 24.3784 38.479 24.3458 38.481H24.3072V39.0407H24.1172ZM24.3075 38.2637H24.4483C24.5396 38.2637 24.5967 38.258 24.6192 38.2471C24.6431 38.2349 24.662 38.2147 24.6725 38.19C24.6864 38.1582 24.6931 38.1237 24.692 38.089C24.6937 38.0508 24.6849 38.0128 24.6666 37.9793C24.6589 37.966 24.6486 37.9544 24.6362 37.9453C24.6239 37.9363 24.6097 37.9299 24.5948 37.9266C24.5486 37.9221 24.5022 37.9205 24.4559 37.9219H24.3075V38.2637Z" fill="white"/>
<path d="M25.8791 39.0407H25.6719L25.5897 38.7347H25.2118L25.1341 39.0407H24.9321L25.299 37.6942H25.5003L25.8791 39.0407ZM25.5286 38.5076L25.4 38.0078L25.2714 38.5076H25.5286Z" fill="white"/>
<path d="M25.9438 39.0407V37.6942H26.1289L26.5149 38.5932V37.6942H26.6914V39.0407H26.5004L26.1213 38.1627V39.0407H25.9438Z" fill="white"/>
<path d="M27.4574 38.5453L27.6421 38.6287C27.6138 38.7751 27.5668 38.8843 27.501 38.9564C27.4693 38.9913 27.4305 39.0189 27.3872 39.0373C27.3439 39.0558 27.2971 39.0647 27.2501 39.0633C27.1247 39.0633 27.0218 39.0022 26.9415 38.8799C26.8613 38.7576 26.821 38.5904 26.8208 38.3782C26.8208 38.1538 26.8613 37.9798 26.9422 37.8561C27.0231 37.7323 27.1296 37.6703 27.2617 37.6701C27.3171 37.6691 27.372 37.6819 27.4212 37.7073C27.4705 37.7328 27.5127 37.7701 27.5439 37.8159C27.5936 37.8907 27.6266 37.9753 27.6405 38.064L27.4524 38.1267C27.4451 38.0661 27.4209 38.0088 27.3824 37.9614C27.3669 37.9423 27.3472 37.9269 27.3249 37.9165C27.3026 37.906 27.2782 37.9007 27.2535 37.9009C27.1836 37.9009 27.1281 37.9366 27.0836 38.0081C27.0391 38.0796 27.0184 38.1963 27.0184 38.3562C27.0184 38.5264 27.0393 38.6476 27.0811 38.72C27.1229 38.7923 27.1786 38.8285 27.2482 38.8285C27.2739 38.8281 27.2991 38.8217 27.3218 38.8097C27.3444 38.7977 27.3639 38.7805 27.3787 38.7595C27.4153 38.7162 27.4417 38.6438 27.4574 38.5453Z" fill="white"/>
<path d="M27.7671 39.0407V37.6942H28.4657V37.9219H27.9574V38.2204H28.4306V38.4474H27.9574V38.8137H28.4839V39.0407H27.7671Z" fill="white"/>
<path d="M29.5389 38.5453L29.7236 38.6287C29.6954 38.7751 29.6484 38.8843 29.5825 38.9564C29.5509 38.9913 29.5121 39.0189 29.4688 39.0373C29.4255 39.0558 29.3787 39.0647 29.3316 39.0633C29.2062 39.0633 29.1033 39.0022 29.0231 38.8799C28.9428 38.7576 28.9026 38.5904 28.9023 38.3782C28.9023 38.1539 28.9428 37.9798 29.0237 37.8561C29.1046 37.7323 29.2111 37.6703 29.3432 37.6701C29.3987 37.6691 29.4535 37.6818 29.5028 37.7073C29.5521 37.7328 29.5942 37.7701 29.6255 37.8159C29.6752 37.8907 29.7081 37.9753 29.722 38.064L29.5339 38.1267C29.5267 38.0661 29.5024 38.0088 29.464 37.9614C29.4484 37.9423 29.4287 37.9269 29.4064 37.9165C29.3841 37.906 29.3597 37.9007 29.3351 37.9009C29.2655 37.9009 29.2088 37.9366 29.1651 38.0081C29.1214 38.0796 29.0997 38.1957 29.0999 38.3562C29.0999 38.5264 29.1213 38.6476 29.1642 38.72C29.2071 38.7924 29.2626 38.8285 29.3313 38.8285C29.357 38.8281 29.3822 38.8217 29.4049 38.8097C29.4276 38.7977 29.4471 38.7805 29.4618 38.7595C29.4953 38.7162 29.5217 38.6438 29.5389 38.5453Z" fill="white"/>
<path d="M29.8089 38.3754C29.8062 38.2589 29.8206 38.1426 29.8519 38.0304C29.8719 37.9648 29.9014 37.9026 29.9397 37.8457C29.9709 37.7968 30.0125 37.7555 30.0617 37.7247C30.1508 37.6734 30.2562 37.6584 30.356 37.6828C30.4559 37.7072 30.5425 37.7692 30.5979 37.8557C30.6815 37.9791 30.7233 38.1503 30.7233 38.3694C30.7233 38.5885 30.6815 38.7585 30.5979 38.8796C30.5624 38.9359 30.5133 38.9823 30.4551 39.0144C30.3968 39.0466 30.3314 39.0634 30.2649 39.0634C30.1983 39.0634 30.1329 39.0466 30.0747 39.0144C30.0164 38.9823 29.9673 38.9359 29.9318 38.8796C29.8499 38.7571 29.8089 38.589 29.8089 38.3754ZM30.0049 38.3663C30.0049 38.5187 30.0296 38.6336 30.0789 38.7112C30.1282 38.7888 30.191 38.8282 30.2671 38.8294C30.3426 38.8294 30.405 38.7902 30.4536 38.7121C30.5022 38.6341 30.5267 38.5171 30.5267 38.3609C30.5267 38.2048 30.5029 38.0916 30.4555 38.016C30.4374 37.9815 30.4102 37.9526 30.3769 37.9325C30.3436 37.9123 30.3054 37.9017 30.2664 37.9017C30.2275 37.9017 30.1893 37.9123 30.156 37.9325C30.1226 37.9526 30.0954 37.9815 30.0773 38.016C30.0293 38.0944 30.0051 38.2111 30.0049 38.3663Z" fill="white"/>
<path d="M30.834 39.0407V37.6942H31.2344C31.3354 37.6942 31.4086 37.7062 31.4539 37.7303C31.504 37.7597 31.5427 37.8053 31.5637 37.8595C31.5921 37.9266 31.6061 37.9989 31.6048 38.0718C31.6083 38.1597 31.5865 38.2467 31.5421 38.3226C31.5215 38.3554 31.4944 38.3836 31.4623 38.4052C31.4302 38.4268 31.3939 38.4414 31.3558 38.4481C31.3952 38.4804 31.4295 38.5185 31.4577 38.5609C31.4991 38.6314 31.5352 38.7047 31.5659 38.7805L31.681 39.0432H31.4533L31.316 38.75C31.2861 38.6823 31.2526 38.6163 31.2156 38.5522C31.2016 38.5288 31.1819 38.5095 31.1582 38.496C31.1283 38.4844 31.0962 38.4793 31.0642 38.481H31.0256V39.0407H30.834ZM31.0243 38.2637H31.1651C31.2564 38.2637 31.3135 38.258 31.336 38.2471C31.3599 38.2349 31.3788 38.2147 31.3893 38.19C31.4032 38.1582 31.4099 38.1237 31.4088 38.089C31.4105 38.0508 31.4017 38.0128 31.3834 37.9793C31.3757 37.966 31.3654 37.9544 31.353 37.9453C31.3407 37.9363 31.3265 37.9299 31.3116 37.9266C31.2654 37.9221 31.219 37.9205 31.1727 37.9219H31.0243V38.2637Z" fill="white"/>
<path d="M31.7461 39.0407V37.6942H32.0512C32.1668 37.6942 32.2423 37.7009 32.2776 37.7143C32.3374 37.7402 32.3857 37.787 32.4134 37.846C32.4528 37.9277 32.4716 38.0178 32.468 38.1085C32.4699 38.1793 32.4592 38.2499 32.4366 38.317C32.4197 38.3664 32.3924 38.4116 32.3566 38.4496C32.3292 38.4782 32.2953 38.4997 32.2579 38.5123C32.1932 38.5273 32.1269 38.5339 32.0606 38.5318H31.9352V39.0407H31.7461ZM31.9361 37.9219V38.3041H32.0402C32.1155 38.3041 32.1657 38.2969 32.1908 38.2828C32.2171 38.2676 32.238 38.2444 32.2503 38.2166C32.2653 38.1838 32.2726 38.148 32.2717 38.1119C32.273 38.0694 32.2621 38.0274 32.2403 37.9909C32.2237 37.9616 32.1962 37.9401 32.1638 37.931C32.1185 37.9232 32.0726 37.9201 32.0267 37.9219H31.9361Z" fill="white"/>
<path d="M32.5472 38.3753C32.5446 38.2589 32.5591 38.1427 32.5901 38.0304C32.6102 37.9649 32.6398 37.9027 32.6779 37.8457C32.7092 37.7965 32.751 37.7549 32.8002 37.7237C32.8894 37.6724 32.9948 37.6574 33.0947 37.6818C33.1946 37.7062 33.2813 37.7682 33.3368 37.8548C33.4204 37.9781 33.4622 38.1494 33.4622 38.3684C33.4622 38.5875 33.4204 38.7576 33.3368 38.8786C33.3013 38.9349 33.2522 38.9813 33.1939 39.0135C33.1357 39.0456 33.0703 39.0625 33.0037 39.0625C32.9372 39.0625 32.8718 39.0456 32.8135 39.0135C32.7553 38.9813 32.7062 38.9349 32.6707 38.8786C32.5884 38.7568 32.5472 38.589 32.5472 38.3753ZM32.7435 38.3662C32.7435 38.5186 32.768 38.6336 32.8172 38.7112C32.8663 38.7887 32.929 38.8282 33.0053 38.8294C33.0812 38.8294 33.1433 38.7902 33.1935 38.7121C33.2436 38.634 33.2662 38.5171 33.2662 38.3609C33.2662 38.2048 33.2427 38.0916 33.1953 38.016C33.1773 37.9814 33.1501 37.9525 33.1167 37.9323C33.0834 37.9121 33.0451 37.9014 33.0061 37.9014C32.9671 37.9014 32.9288 37.9121 32.8955 37.9323C32.8621 37.9525 32.8349 37.9814 32.8168 38.016C32.7679 38.0944 32.7435 38.2111 32.7435 38.3662Z" fill="white"/>
<path d="M33.5723 39.0407V37.6942H33.973C34.0736 37.6942 34.1467 37.7062 34.1925 37.7303C34.2426 37.7597 34.2813 37.8053 34.3023 37.8595C34.3307 37.9266 34.3447 37.9989 34.3434 38.0718C34.3467 38.1596 34.325 38.2467 34.2806 38.3226C34.2599 38.3556 34.2324 38.3838 34.2 38.4054C34.1675 38.427 34.1309 38.4416 34.0925 38.4481C34.132 38.4802 34.1664 38.5183 34.1944 38.5609C34.236 38.6313 34.2723 38.7047 34.3029 38.7805L34.418 39.0432H34.1903L34.0527 38.75C34.0229 38.6823 33.9894 38.6162 33.9523 38.5522C33.9385 38.5288 33.9188 38.5095 33.8953 38.496C33.8647 38.4842 33.832 38.479 33.7993 38.481H33.7607V39.0407H33.5723ZM33.7626 38.2637H33.9034C33.995 38.2637 34.0517 38.258 34.0746 38.2471C34.0985 38.2348 34.1173 38.2146 34.1279 38.19C34.1417 38.1582 34.1482 38.1237 34.1471 38.089C34.1488 38.0508 34.14 38.0128 34.1217 37.9793C34.114 37.966 34.1038 37.9545 34.0914 37.9454C34.0791 37.9363 34.0651 37.9299 34.0502 37.9266C34.004 37.9221 33.9576 37.9205 33.9112 37.9219H33.7626V38.2637Z" fill="white"/>
<path d="M35.3343 39.0407H35.1273L35.0452 38.7347H34.6689L34.5911 39.0407H34.3892L34.7564 37.6942H34.9577L35.3343 39.0407ZM34.984 38.5076L34.8542 38.0078L34.7269 38.5076H34.984Z" fill="white"/>
<path d="M35.5116 39.0407V37.9219H35.2319V37.6942H35.9811V37.9219H35.702V39.0407H35.5116Z" fill="white"/>
<path d="M36.0601 39.0407V37.6942H36.2501V39.0407H36.0601Z" fill="white"/>
<path d="M36.3548 38.3754C36.3521 38.2589 36.3665 38.1427 36.3978 38.0304C36.4178 37.9649 36.4473 37.9026 36.4856 37.8457C36.5167 37.7969 36.5582 37.7555 36.6073 37.7247C36.6964 37.6734 36.8019 37.6584 36.9018 37.6828C37.0017 37.7072 37.0883 37.7692 37.1438 37.8558C37.2274 37.9791 37.2692 38.1503 37.2692 38.3694C37.2692 38.5885 37.2274 38.7586 37.1438 38.8796C37.1083 38.9359 37.0592 38.9823 37.001 39.0145C36.9427 39.0466 36.8773 39.0635 36.8108 39.0635C36.7442 39.0635 36.6788 39.0466 36.6206 39.0145C36.5623 38.9823 36.5132 38.9359 36.4777 38.8796C36.3956 38.7571 36.3546 38.589 36.3548 38.3754ZM36.5508 38.3663C36.5508 38.5187 36.5755 38.6337 36.6248 38.7112C36.6741 38.7888 36.7369 38.8282 36.813 38.8294C36.8888 38.8294 36.9516 38.7904 37.0011 38.7122C37.0506 38.634 37.075 38.5169 37.0742 38.361C37.0742 38.2067 37.0504 38.0917 37.003 38.016C36.9849 37.9814 36.9577 37.9525 36.9244 37.9323C36.891 37.9121 36.8527 37.9014 36.8137 37.9014C36.7747 37.9014 36.7365 37.9121 36.7031 37.9323C36.6698 37.9525 36.6426 37.9814 36.6245 38.016C36.5752 38.0944 36.5506 38.2112 36.5508 38.3663Z" fill="white"/>
<path d="M37.3813 39.0407V37.6942H37.5664L37.9524 38.5932V37.6942H38.1289V39.0407H37.938L37.5582 38.1627V39.0407H37.3813Z" fill="white"/>
<path d="M32.0196 36.7469C31.8302 36.8146 31.6333 36.8592 31.4332 36.8799L31.3213 36.5412C31.5855 36.5106 31.8453 36.4497 32.0955 36.3596H31.3667V36.0617H32.6185V36.0304C32.6022 36.0266 32.5872 36.0235 32.5731 36.0216L32.5518 35.6917C32.6646 35.7303 32.7399 35.7431 32.7757 35.7312C32.828 35.7071 32.8544 35.6738 32.8544 35.6315V35.6343C32.8544 35.6183 32.8453 35.6102 32.8271 35.6102H32.4643V36.0034H32.1165V35.6102H31.7992C31.7829 35.6124 31.7747 35.6202 31.7747 35.6343V35.9034H31.4755V35.3866C31.4741 35.3763 31.475 35.3658 31.4783 35.356C31.4816 35.3462 31.4871 35.3372 31.4944 35.3299C31.5018 35.3226 31.5107 35.317 31.5206 35.3138C31.5304 35.3105 31.5409 35.3095 31.5511 35.311H32.1156V35.2354H31.4382V34.9723C31.3997 34.9063 31.353 34.8453 31.2993 34.7908C31.46 34.6761 31.5898 34.5234 31.6772 34.3464L31.9735 34.5346C31.968 34.5439 31.9619 34.5529 31.9553 34.5616H32.1156V34.4164H32.4633V34.5616H33.0742V34.861H32.4633V34.9366H33.1102V35.2361H32.4633V35.3116H33.0742C33.1265 35.3116 33.1526 35.3367 33.1526 35.3872V35.7742C33.1522 35.8198 33.1389 35.8644 33.1144 35.9029C33.0898 35.9414 33.0549 35.9722 33.0137 35.9918L32.9531 36.0191V36.0617H34.1134V36.3609H33.781L33.8807 36.5606C33.7658 36.6307 33.6466 36.6935 33.5239 36.7488C33.7294 36.8369 33.9461 36.8959 34.1679 36.9241L34.0409 37.2627C33.6118 37.2 33.252 37.0316 32.9616 36.7576L33.0221 37.0661C32.6695 37.1706 32.2361 37.2392 31.722 37.2718L31.6766 36.9209C31.7935 36.909 31.9073 36.8987 32.018 36.8896L32.0196 36.7469ZM32.1165 34.8601H31.7236C31.6972 34.8842 31.6709 34.9093 31.6449 34.9357H32.1153L32.1165 34.8601ZM32.9359 36.7287C32.8471 36.6382 32.769 36.5377 32.7032 36.4292C32.5822 36.4999 32.4702 36.5604 32.3674 36.6108V36.8457C32.559 36.8176 32.7488 36.7785 32.9359 36.7287V36.7287ZM33.193 36.5139C33.322 36.4596 33.4389 36.4081 33.5436 36.3596H33.0689C33.0806 36.3728 33.0911 36.3869 33.1002 36.402C33.1303 36.4402 33.1613 36.4775 33.193 36.5139V36.5139ZM33.2109 34.5487H33.5467V35.5315H33.2109V34.5487ZM33.7126 34.4399H34.0604V35.7459C34.0603 35.7955 34.0456 35.844 34.0181 35.8852C33.9827 35.9337 33.9345 35.9714 33.8788 35.994C33.7701 36.0465 33.5948 36.0394 33.353 35.9727L33.3617 35.6098C33.521 35.6826 33.6249 35.7035 33.6734 35.6726C33.6868 35.6646 33.6976 35.6529 33.7046 35.6389C33.7115 35.625 33.7143 35.6094 33.7126 35.5939V34.4399Z" fill="white"/>
<path d="M36.5755 37.2609L36.4501 37.037C36.4297 37.1116 36.3987 37.1624 36.356 37.1881C36.2687 37.241 36.1704 37.2732 36.0688 37.2822C35.9538 37.2904 35.7774 37.2662 35.5394 37.2098L35.5081 36.8335C35.7339 36.9 35.8861 36.9332 35.9647 36.9332C36.0257 36.9342 36.0861 36.9196 36.14 36.8909C36.1503 36.8837 36.1589 36.8744 36.1651 36.8636C36.1714 36.8527 36.1753 36.8406 36.1763 36.8281C36.1883 36.784 36.1987 36.6672 36.2077 36.4776C36.1977 36.4462 36.1804 36.4333 36.1563 36.4412H35.8571V36.544C35.7442 36.534 35.6323 36.529 35.5213 36.529V35.6764C35.5219 35.6539 35.5306 35.6325 35.5457 35.6158C35.5612 35.6039 35.5804 35.5974 35.6 35.5977H36.1867V35.5249C36.1867 35.4907 36.1685 35.4738 36.1321 35.4738H35.8731C35.7255 35.5257 35.5738 35.5651 35.4197 35.5917L35.229 35.2803C35.3943 35.2563 35.5571 35.2178 35.7157 35.1652C35.7207 35.1629 35.7258 35.1609 35.731 35.1593C35.6377 35.0804 35.5387 35.0086 35.4347 34.9445L35.6523 34.6786C35.7965 34.7734 35.9339 34.8781 36.0634 34.9921C36.1547 34.9327 36.2354 34.8585 36.3024 34.7726H35.8066V34.4368H36.5906L36.7659 34.5851L36.902 34.3825C36.9747 34.4662 37.0479 34.5417 37.1215 34.6093C37.226 34.5064 37.3096 34.4176 37.3723 34.343L37.6172 34.5788C37.5447 34.668 37.4659 34.7518 37.3814 34.8297C37.4034 34.8457 37.4247 34.8611 37.4441 34.8749C37.5277 34.7883 37.6055 34.6965 37.6771 34.5998L37.934 34.8193C37.8751 34.8996 37.8115 34.9764 37.7436 35.0492C37.8912 35.1201 38.0426 35.1829 38.197 35.2374L37.9854 35.5215H38.0399C38.0258 35.6782 38.0145 35.7723 38.0067 35.8118C37.9999 35.8485 37.9806 35.8817 37.9521 35.9059C37.9057 35.9483 37.8457 35.973 37.7828 35.9755H37.5228C37.4918 35.9771 37.4608 35.9723 37.4317 35.9614C37.4026 35.9506 37.376 35.9339 37.3536 35.9123C37.3312 35.8908 37.3135 35.8649 37.3015 35.8362C37.2895 35.8075 37.2835 35.7767 37.2839 35.7457V35.5039C37.282 35.4725 37.2657 35.4556 37.2356 35.4556H37.0788C37.0735 35.4549 37.0681 35.4554 37.063 35.4571C37.0579 35.4588 37.0533 35.4617 37.0495 35.4655C37.0457 35.4693 37.0428 35.4739 37.0411 35.479C37.0394 35.4841 37.0389 35.4895 37.0396 35.4948V35.5826C37.0402 35.6469 37.0246 35.7103 36.9942 35.767C36.944 35.8598 36.8553 35.9364 36.7282 35.9968H37.717L37.9195 36.1903C37.8409 36.3816 37.7654 36.5237 37.6928 36.6165C37.6396 36.6799 37.5819 36.7395 37.5203 36.7949C37.7077 36.859 37.903 36.8967 38.1008 36.9069L37.98 37.2455C37.6456 37.201 37.3905 37.1213 37.2149 37.0066C36.9358 37.1519 36.7227 37.2366 36.5755 37.2609ZM36.7841 36.3296H36.648V36.0213L36.5225 35.8184V36.0514H36.187V35.9304H35.9088C35.9023 35.9298 35.8957 35.9307 35.8894 35.9328C35.8832 35.9349 35.8774 35.9382 35.8725 35.9426C35.8629 35.9534 35.8575 35.9673 35.8574 35.9818V36.1028H36.447C36.5012 36.0988 36.5316 36.122 36.5376 36.1724C36.5152 36.5331 36.495 36.778 36.4771 36.9072C36.5699 36.8808 36.7131 36.8314 36.9067 36.7588C36.8062 36.6642 36.7141 36.5611 36.6313 36.4506L36.7841 36.3296ZM37.2544 35.1533C37.0778 35.0248 36.9111 34.8833 36.7555 34.73C36.6809 34.8843 36.5761 35.0221 36.4473 35.1351H36.4655C36.5037 35.1351 36.5228 35.1533 36.5228 35.1897V35.7309C36.5732 35.7086 36.6115 35.6904 36.6376 35.6764C36.7044 35.6362 36.7373 35.5707 36.7373 35.4797V35.2198C36.7373 35.202 36.7438 35.1848 36.7555 35.1715C36.769 35.1597 36.7862 35.1533 36.8041 35.1533H37.2544ZM37.2061 36.5895C37.3032 36.5149 37.3897 36.4274 37.4633 36.3296H36.9615C37.0368 36.4223 37.119 36.5092 37.2074 36.5895H37.2061ZM37.8894 35.4979C37.7707 35.4436 37.6679 35.3942 37.5812 35.3499V35.6158C37.5797 35.6306 37.5829 35.6454 37.5903 35.6582C37.5962 35.6663 37.6113 35.6713 37.6354 35.6735H37.6718C37.6941 35.6714 37.7155 35.6641 37.7345 35.6522C37.7448 35.5943 37.7509 35.5357 37.7527 35.4769L37.8894 35.4979Z" fill="white"/>
<path d="M4.40231 34.8074H3.46689V34.549C3.46798 34.521 3.46341 34.4931 3.45346 34.467C3.44351 34.4408 3.42838 34.417 3.40899 34.3968C3.38959 34.3766 3.36632 34.3606 3.34057 34.3496C3.31482 34.3387 3.28713 34.333 3.25915 34.333C3.23117 34.333 3.20347 34.3387 3.17773 34.3496C3.15198 34.3606 3.12871 34.3766 3.10931 34.3968C3.08991 34.417 3.07478 34.4408 3.06483 34.467C3.05488 34.4931 3.05031 34.521 3.0514 34.549V34.8074H2.11599C2.05777 34.8074 2.00194 34.8305 1.96078 34.8717C1.91961 34.9128 1.89648 34.9687 1.89648 35.0269V35.0269V36.2975H3.0514V37.2455H3.46689V36.2975H4.62307V35.0269C4.62307 34.998 4.61735 34.9693 4.60624 34.9426C4.59513 34.9159 4.57885 34.8916 4.55833 34.8712C4.53782 34.8508 4.51347 34.8347 4.48669 34.8237C4.45992 34.8128 4.43124 34.8072 4.40231 34.8074V34.8074ZM3.0514 35.9228H2.27153V35.1837H3.0514V35.9228ZM4.24677 35.9228H3.46689V35.1837H4.24583L4.24677 35.9228Z" fill="white"/>
<path d="M12.6649 35.121H12.1669V35.4117H13.4131C13.4516 35.4117 13.4885 35.3964 13.5157 35.3692C13.543 35.3419 13.5583 35.305 13.5583 35.2665C13.5583 35.228 13.543 35.1911 13.5157 35.1638C13.4885 35.1366 13.4516 35.1213 13.4131 35.1213H13.0587V34.9692H13.4309C13.4707 34.9692 13.5088 34.9534 13.5369 34.9253C13.565 34.8972 13.5808 34.8591 13.5808 34.8193C13.5808 34.7796 13.565 34.7414 13.5369 34.7133C13.5088 34.6852 13.4707 34.6694 13.4309 34.6694H13.0572V34.5399C13.0572 34.4879 13.0365 34.4381 12.9998 34.4013C12.963 34.3646 12.9131 34.3439 12.8612 34.3439C12.8092 34.3439 12.7593 34.3646 12.7226 34.4013C12.6858 34.4381 12.6652 34.4879 12.6652 34.5399V34.6694H12.1431V34.9692H12.6652C12.6652 35.0228 12.6652 35.0746 12.6649 35.121Z" fill="white"/>
<path d="M13.4292 36.2966C13.4678 36.2949 13.5043 36.2783 13.531 36.2503C13.5577 36.2224 13.5726 36.1852 13.5726 36.1466C13.5726 36.1079 13.5577 36.0708 13.531 36.0428C13.5043 36.0149 13.4678 35.9983 13.4292 35.9965H12.1436V36.2966H12.7027V36.841C12.7027 36.8732 12.6899 36.9041 12.6671 36.9268C12.6444 36.9496 12.6135 36.9624 12.5813 36.9624H12.4512V37.2446H12.7971C12.8579 37.2446 12.9163 37.2204 12.9594 37.1773C13.0024 37.1343 13.0266 37.0759 13.0266 37.015V36.296L13.4292 36.2966Z" fill="white"/>
<path d="M13.4524 35.56H12.2065V35.8504H13.4524C13.4909 35.8504 13.5278 35.8351 13.5551 35.8079C13.5823 35.7806 13.5976 35.7437 13.5976 35.7052C13.5976 35.6667 13.5823 35.6298 13.5551 35.6025C13.5278 35.5753 13.4909 35.56 13.4524 35.56V35.56Z" fill="white"/>
<path d="M12.2328 36.4029C12.2384 36.7024 12.1133 36.7102 12.1133 36.7102V36.9952C12.5645 36.9899 12.5592 36.4029 12.5592 36.4029H12.2328Z" fill="white"/>
<path d="M13.4799 36.4029H13.1538C13.1538 36.4029 13.1485 36.9899 13.5997 36.9952V36.7102C13.5997 36.7102 13.4746 36.7024 13.4799 36.4029Z" fill="white"/>
<path d="M14.8057 34.682H14.1519V34.5152C14.1519 34.4702 14.1341 34.4272 14.1023 34.3954C14.0706 34.3637 14.0275 34.3458 13.9826 34.3458C13.9377 34.3458 13.8946 34.3637 13.8629 34.3954C13.8311 34.4272 13.8133 34.4702 13.8133 34.5152V34.5729C13.8133 34.591 13.8133 34.6074 13.8133 34.6249V34.6908C13.8035 35.1724 13.6367 35.295 13.6367 35.295V35.5798C13.747 35.5279 13.8451 35.4533 13.9245 35.3608C14.0038 35.2683 14.0628 35.1601 14.0974 35.0432H14.2228C14.2438 35.7397 14.1507 36.7077 13.7342 36.9172V37.2533C13.7633 37.2513 13.792 37.2465 13.8202 37.2392C14.0986 37.1452 14.2714 36.9081 14.3793 36.6183C14.4906 36.9109 14.6615 37.1514 14.9221 37.2392C14.9502 37.2465 14.979 37.2513 15.008 37.2533V36.9175C14.7239 36.7745 14.5906 36.279 14.5411 35.7572C14.5593 35.4829 14.5561 35.227 14.5565 35.0439H14.6913V35.5161H15.0362V34.9109C15.0361 34.8807 15.0301 34.8509 15.0185 34.823C15.0069 34.7952 14.9898 34.7699 14.9684 34.7487C14.947 34.7274 14.9216 34.7106 14.8937 34.6991C14.8658 34.6877 14.8359 34.6819 14.8057 34.682V34.682Z" fill="white"/>
<path d="M18.4418 35.8334H17.5985V35.6036H18.2759V34.6779C18.2759 34.6197 18.2527 34.5638 18.2116 34.5227C18.1704 34.4815 18.1146 34.4584 18.0564 34.4584H16.7497C16.6915 34.4584 16.6356 34.4815 16.5945 34.5227C16.5533 34.5638 16.5302 34.6197 16.5302 34.6779V35.6036H17.1993V35.8334H16.3564V36.1244H17.0733C16.9582 36.4891 16.5201 36.808 16.411 36.8287V37.2016C16.6258 37.1752 17.0266 36.8312 17.1981 36.5866V37.2533H17.5985V36.5754C17.7654 36.8203 18.1755 37.1752 18.3935 37.2025V36.8297C18.2843 36.809 17.8463 36.4901 17.7312 36.1254H18.4418C18.4803 36.1254 18.5172 36.1101 18.5444 36.0828C18.5716 36.0556 18.5869 36.0187 18.5869 35.9802C18.5869 35.9417 18.5716 35.9047 18.5444 35.8775C18.5172 35.8503 18.4803 35.835 18.4418 35.835V35.8334ZM16.9052 35.2633V34.7905H17.8996V35.2633H16.9052Z" fill="white"/>
<path d="M16.3596 34.5299C16.3595 34.4809 16.34 34.4339 16.3053 34.3993C16.2706 34.3647 16.2236 34.3452 16.1746 34.3452V34.3452C16.1256 34.3454 16.0786 34.3649 16.0438 34.3994C16.0091 34.434 15.9894 34.4809 15.989 34.5299C15.989 34.5553 15.9786 35.1687 15.5063 35.6077V36.0062C15.5161 36.0015 15.5255 35.9956 15.5352 35.9899C15.6465 35.9257 15.7495 35.8481 15.8419 35.7588V37.2534H16.1806V35.2838C16.291 35.0473 16.352 34.7908 16.3596 34.5299V34.5299Z" fill="white"/>
<path d="M7.94733 35.8184H7.77173V34.9576C7.77173 34.8994 7.7486 34.8436 7.70744 34.8024C7.66627 34.7612 7.61044 34.7381 7.55222 34.7381H6.79148V34.55C6.79256 34.522 6.78799 34.4941 6.77804 34.468C6.76809 34.4418 6.75296 34.4179 6.73357 34.3978C6.71417 34.3776 6.6909 34.3615 6.66515 34.3506C6.6394 34.3396 6.61171 34.334 6.58373 34.334C6.55575 34.334 6.52805 34.3396 6.50231 34.3506C6.47656 34.3615 6.45329 34.3776 6.43389 34.3978C6.41449 34.4179 6.39937 34.4418 6.38941 34.468C6.37946 34.4941 6.3749 34.522 6.37598 34.55V34.7381H5.61618C5.55796 34.7381 5.50213 34.7612 5.46096 34.8024C5.4198 34.8436 5.39667 34.8994 5.39667 34.9576V35.8184H5.23518V36.1464H6.31264C6.10787 36.7573 5.41893 36.8507 5.23486 36.8726V37.2458C5.62997 37.2145 6.2863 37.0018 6.58326 36.4242C6.8821 37.0018 7.53842 37.2148 7.93353 37.2458V36.8726C7.74915 36.8507 7.06021 36.7573 6.85545 36.1464H7.94702C7.99051 36.1464 8.03223 36.1291 8.06299 36.0984C8.09374 36.0676 8.11102 36.0259 8.11102 35.9824C8.11102 35.9389 8.09374 35.8972 8.06299 35.8664C8.03223 35.8357 7.99051 35.8184 7.94702 35.8184H7.94733ZM6.37598 35.8184H5.7714V35.0705H6.37598V35.8184ZM7.39512 35.8184H6.79085V35.0705H7.39512V35.8184V35.8184Z" fill="white"/>
<path d="M11.3157 34.9577C11.3626 34.9577 11.4076 34.939 11.4407 34.9059C11.4739 34.8727 11.4925 34.8277 11.4925 34.7808C11.4925 34.7339 11.4739 34.6889 11.4407 34.6557C11.4076 34.6226 11.3626 34.6039 11.3157 34.6039H9.76879C9.77099 34.5754 9.77193 34.5566 9.77224 34.5513C9.7723 34.5 9.7525 34.4506 9.71699 34.4136C9.68147 34.3766 9.63301 34.3548 9.58175 34.3527C9.53049 34.3506 9.48043 34.3685 9.44205 34.4025C9.40367 34.4366 9.37995 34.4841 9.37588 34.5353C9.37588 34.5353 9.37588 34.5619 9.36992 34.6039H8.67471V34.9583H9.30031C9.20968 35.2835 9.01181 35.7081 8.58252 35.899L8.63018 36.3095C8.66342 36.2963 8.6929 36.2832 8.70388 36.2781C8.82403 36.2293 8.93726 36.1649 9.04066 36.0866V37.2468H9.41414V35.6789C9.55404 35.4574 9.65472 35.2134 9.71172 34.9577H11.3157Z" fill="white"/>
<path d="M11.3659 36.1527H10.894V35.9069C11.0636 35.7275 11.2634 35.5158 11.264 35.5149C11.2844 35.493 11.2989 35.4662 11.306 35.4371C11.3169 35.4042 11.3198 35.3692 11.3144 35.335C11.309 35.3008 11.2956 35.2684 11.2752 35.2404C11.2547 35.2124 11.2279 35.1897 11.197 35.1742C11.166 35.1587 11.1318 35.1508 11.0972 35.1511H9.82404V35.4434H10.8447L10.7024 35.5964C10.7005 35.599 10.6984 35.6014 10.6961 35.6036L10.5685 35.7407L10.5114 35.8034V36.153H9.58008V36.4475H10.5114V36.6827C10.5114 36.762 10.5171 36.9113 10.4377 36.9113H10.0737V37.2462H10.6224C10.6945 37.2461 10.7635 37.2174 10.8145 37.1664C10.8654 37.1154 10.894 37.0463 10.894 36.9743V36.4475H11.3659C11.4049 36.4475 11.4423 36.432 11.4699 36.4044C11.4975 36.3768 11.513 36.3394 11.513 36.3004C11.513 36.2614 11.4975 36.224 11.4699 36.1964C11.4423 36.1688 11.4049 36.1533 11.3659 36.1533V36.1527Z" fill="white"/>
<path d="M20.1407 34.6481C20.1506 34.5982 20.1533 34.5471 20.1489 34.4963C20.1351 34.4095 20.0833 34.3458 19.9802 34.3458H19.2539V37.2533H19.5675V36.6506H19.9811C20.0843 36.6506 20.136 36.5879 20.1498 36.5001C20.1543 36.4494 20.1515 36.3983 20.1417 36.3483C20.1382 36.3258 20.1338 36.2994 20.1291 36.2712C20.035 35.7604 20.035 35.2367 20.1291 34.7259C20.1319 34.6967 20.1373 34.6704 20.1407 34.6481ZM19.7484 35.4973C19.7484 35.5133 19.7484 35.5286 19.7484 35.5443C19.7528 35.8044 19.7774 36.0638 19.8221 36.3201C19.8222 36.3226 19.8222 36.3251 19.8221 36.3276H19.5675V34.6657H19.8252C19.8254 34.6683 19.8254 34.6709 19.8252 34.6735C19.7805 34.9297 19.7559 35.189 19.7516 35.449C19.7478 35.4659 19.7484 35.4819 19.7484 35.4973Z" fill="white"/>
<path d="M21.1984 34.3458H21.1865C21.1263 34.3459 21.0679 34.3658 21.0203 34.4026C20.4599 34.8416 20.2401 34.888 20.2363 34.8893V35.2386C20.3094 35.2229 20.3815 35.2027 20.4521 35.1781V35.3405H21.9341V35.1796C22.0047 35.2042 22.0767 35.2244 22.1498 35.2402V34.8908C22.1454 34.8908 21.9256 34.8428 21.3659 34.4042C21.3181 34.3665 21.2592 34.346 21.1984 34.3458ZM20.7541 35.0457C20.8597 34.99 20.9605 34.9256 21.0554 34.8532V34.8532C21.0752 34.8385 21.0959 34.8218 21.1181 34.8055C21.1389 34.7896 21.1644 34.7809 21.1906 34.7808H21.1956C21.2219 34.781 21.2474 34.7896 21.2683 34.8055C21.2903 34.8231 21.311 34.8369 21.331 34.8532C21.426 34.9256 21.5268 34.99 21.6324 35.0457H20.7541Z" fill="white"/>
<path d="M20.8994 36.4816C20.9019 36.4596 20.9038 36.4289 20.9053 36.3994H21.144V35.5995C21.1439 35.5541 21.1258 35.5107 21.0937 35.4786C21.0616 35.4466 21.0181 35.4286 20.9727 35.4286H20.5497C20.5273 35.4286 20.5051 35.433 20.4843 35.4416C20.4636 35.4502 20.4447 35.4628 20.4289 35.4786C20.413 35.4945 20.4004 35.5134 20.3918 35.5341C20.3832 35.5548 20.3788 35.577 20.3788 35.5995V35.5995V36.3994H20.5889C20.5858 36.613 20.5237 36.7205 20.3638 36.8551V37.2533C20.3818 37.2505 20.3995 37.2458 20.4165 37.2392C20.5845 37.1724 20.6987 37.0376 20.7664 36.8569C20.836 37.0394 20.9423 37.1887 21.1054 37.2445C21.123 37.249 21.1409 37.2519 21.159 37.2533V36.8551C21.1232 36.834 21.0898 36.8089 21.0596 36.7804C20.9367 36.628 20.9053 36.517 20.8994 36.4816ZM20.6701 35.687H20.853V36.1357H20.6708L20.6701 35.687Z" fill="white"/>
<path d="M21.7623 36.4816C21.7648 36.4596 21.7667 36.4289 21.7683 36.3994H22.0066V35.5995C22.0066 35.577 22.0021 35.5548 21.9936 35.5341C21.985 35.5134 21.9724 35.4945 21.9565 35.4786C21.9406 35.4628 21.9218 35.4502 21.9011 35.4416C21.8803 35.433 21.8581 35.4286 21.8357 35.4286H21.4123C21.3899 35.4286 21.3677 35.433 21.3469 35.4416C21.3262 35.4502 21.3074 35.4628 21.2915 35.4786C21.2756 35.4945 21.263 35.5134 21.2544 35.5341C21.2459 35.5548 21.2414 35.577 21.2414 35.5995V35.5995V36.3994H21.4515C21.4484 36.613 21.3863 36.7205 21.2261 36.8551V37.2533C21.2441 37.2506 21.2618 37.2459 21.2788 37.2392C21.4471 37.1724 21.561 37.0376 21.629 36.8569C21.6986 37.0394 21.8049 37.1887 21.968 37.2445C21.9856 37.249 22.0035 37.2519 22.0216 37.2533V36.8551C21.9858 36.8341 21.9524 36.809 21.9222 36.7804C21.7993 36.628 21.7679 36.517 21.7623 36.4816ZM21.5331 35.687H21.7153V36.1357H21.5331V35.687Z" fill="white"/>
<path d="M28.0512 35.1963C28.0513 35.1728 28.0467 35.1496 28.0377 35.1279C28.0288 35.1062 28.0157 35.0865 27.9991 35.0699C27.9825 35.0533 27.9628 35.0401 27.9412 35.0311C27.9195 35.0221 27.8963 35.0175 27.8728 35.0175H26.2422V35.3747H27.8728C27.9201 35.3747 27.9655 35.3559 27.999 35.3224C28.0324 35.289 28.0512 35.2436 28.0512 35.1963V35.1963Z" fill="white"/>
<path d="M27.9741 36.5465V35.7482C27.9741 35.6926 27.952 35.6393 27.9127 35.6C27.8734 35.5608 27.8202 35.5387 27.7646 35.5387H26.5244C26.4689 35.5387 26.4156 35.5608 26.3763 35.6C26.337 35.6393 26.3149 35.6926 26.3149 35.7482V36.6262H27.9741V36.5465ZM27.6169 36.3057H26.6721V35.8567H27.6169V36.3057Z" fill="white"/>
<path d="M28.3084 34.3455H26.2002V34.7165H28.2795V36.8833H27.3996V37.2533H28.309C28.3997 37.2532 28.4866 37.2171 28.5508 37.153C28.6149 37.0888 28.651 37.0019 28.6511 36.9112V34.687C28.6508 34.5963 28.6146 34.5095 28.5503 34.4455C28.4861 34.3815 28.3991 34.3455 28.3084 34.3455V34.3455Z" fill="white"/>
<path d="M24.9657 36.1029H24.5003L24.9371 36.8504H23.4442L24.2441 35.481H23.7794L23.0638 36.704C22.9804 36.8514 22.9697 36.9799 23.0324 37.0862C23.1284 37.2512 23.3385 37.2512 23.4401 37.2512H24.9798C25.0883 37.2512 25.2651 37.2339 25.3514 37.0866C25.4141 36.9802 25.4025 36.8517 25.32 36.7043L24.9657 36.1029Z" fill="white"/>
<path d="M25.0023 34.7369C24.9813 34.7021 24.9615 34.6638 24.9395 34.6234L24.9348 34.6149C24.9295 34.6046 24.9251 34.5945 24.921 34.5851C24.8861 34.4921 24.8161 34.4164 24.726 34.3744C24.6709 34.3519 24.6114 34.3422 24.552 34.3459H23.8282C23.7688 34.3422 23.7093 34.3519 23.6542 34.3744C23.5642 34.4164 23.4942 34.4921 23.4594 34.5851C23.4551 34.5945 23.4507 34.6046 23.4453 34.6149L23.4409 34.6234C23.4199 34.6638 23.3999 34.7021 23.3782 34.7369C23.2171 35.0006 23.0364 35.2073 22.7749 35.306V35.7353C23.2274 35.6275 23.5059 35.3361 23.7134 34.9962C23.7414 34.9504 23.7928 34.8513 23.7928 34.8513C23.8016 34.8347 23.8486 34.7435 23.8511 34.7385H24.5291C24.5313 34.7435 24.5786 34.8347 24.5874 34.8513C24.5874 34.8513 24.6385 34.9504 24.6667 34.9962C24.874 35.3361 25.1528 35.6275 25.605 35.7353V35.306C25.3441 35.2082 25.1634 35.0006 25.0023 34.7369Z" fill="white"/>
</svg>
