<svg width="18" height="18" viewBox="0 0 18 18" fill="none" xmlns="http://www.w3.org/2000/svg">
<path d="M9 14.6648C8.42273 14.6648 7.84547 14.4869 7.35258 14.1308L0 8.81941V16.3126C0 17.2446 0.755508 18.0001 1.6875 18.0001H16.3125C17.2445 18.0001 18 17.2446 18 16.3126V8.81941L10.6474 14.1308C10.1545 14.4866 9.57727 14.6648 9 14.6648ZM17.3535 5.72882C17.0423 5.48484 16.7474 5.25526 16.3125 4.92691V3.37511C16.3125 2.44312 15.557 1.68761 14.625 1.68761H11.8986C11.7918 1.61026 11.6923 1.53784 11.5808 1.45698C10.9898 1.02597 9.81563 -0.0121962 9 0.00010847C8.18437 -0.0121962 7.01051 1.02562 6.41918 1.45698C6.30773 1.53784 6.20824 1.61026 6.10137 1.68761H3.375C2.44301 1.68761 1.6875 2.44312 1.6875 3.37511V4.92691C1.25262 5.25491 0.957656 5.48484 0.646523 5.72882C0.445134 5.88665 0.282275 6.08821 0.170267 6.31825C0.0582584 6.5483 3.46572e-05 6.80081 0 7.05667L0 7.43108L3.375 9.86917V3.37511H14.625V9.86917L18 7.43108V7.05667C18 6.53847 17.7616 6.04874 17.3535 5.72882ZM9.28125 4.78136H8.71875C8.56336 4.78136 8.4375 4.90722 8.4375 5.06261V5.62933C7.60711 5.65148 6.93738 6.35179 6.93738 7.21382C6.93738 7.91589 7.39371 8.54308 8.04762 8.73925L9.62965 9.21386C9.81105 9.26835 9.93797 9.45222 9.93797 9.6614C9.93797 9.91698 9.75164 10.1251 9.52312 10.1251H8.53488C8.37457 10.1251 8.21988 10.0798 8.08418 9.99433C7.97027 9.92296 7.82543 9.92718 7.72805 10.02L7.31496 10.4141C7.19086 10.5326 7.19789 10.7379 7.335 10.8409C7.65492 11.081 8.04094 11.2195 8.43785 11.2399V11.8126C8.43785 11.968 8.56371 12.0939 8.7191 12.0939H9.2816C9.43699 12.0939 9.56285 11.968 9.56285 11.8126V11.2459C10.3932 11.2237 11.063 10.5238 11.063 9.6614C11.063 8.95933 10.6066 8.33214 9.95273 8.13597L8.3707 7.66136C8.1893 7.60687 8.06238 7.423 8.06238 7.21382C8.06238 6.95823 8.24871 6.75011 8.47723 6.75011H9.46547C9.62578 6.75011 9.78047 6.79546 9.91617 6.88089C10.0301 6.95226 10.1749 6.94804 10.2723 6.85523L10.6854 6.46112C10.8095 6.34265 10.8025 6.13733 10.6654 6.03433C10.3454 5.79421 9.95941 5.65569 9.5625 5.6353V5.06261C9.5625 4.90722 9.43664 4.78136 9.28125 4.78136Z" fill="#0F9036"/>
</svg>
