<svg width="32" height="32" viewBox="0 0 60 60" fill="none" xmlns="http://www.w3.org/2000/svg">
<text x="0" y="35" font-size="24px" fill="rgb(50,50,50)">A</text>
  <line x1="60" y1="0" x2="60" y2="60" style="stroke:rgb(50,50,50);stroke-width:1" />
</svg>